INDEX VERSION 1.127+C:\Users\duniv1-007\workspace3\.metadata\.plugins\org.eclipse.jdt.core
4004133052.index
1604200090.index
173170441.index
2338776811.index
703921253.index
3484127947.index
3776747114.index
1992124853.index
871360596.index
3335799232.index
433200078.index
1835657745.index
1877021558.index
892699554.index
4216409556.index
1282408645.index
1526543312.index
2034618843.index
3991718231.index
828133061.index
3960687953.index
1107303094.index
3315313514.index
1691897461.index
2800901694.index
2193799835.index
1577296602.index
4114912538.index
2564057614.index
3454125809.index
2060797985.index
557531547.index
4208024646.index
1507744486.index
242434754.index
1055771229.index
1574318262.index
2216373267.index
318645733.index
834584462.index
1832949699.index
3598813974.index
3001702696.index
92286095.index
1605066406.index
330183426.index
757579191.index
2303148529.index
3672365310.index
1634358544.index
24097096.index
1947431546.index
1476160440.index
1227394365.index
2862202378.index
1309443331.index
2743915309.index
2080791326.index
432219587.index
199392567.index
428313142.index
2298297087.index
2486087126.index
3095963708.index
2359428603.index
3408669381.index
2623594394.index
1028199574.index
1065832147.index
2167650146.index
1817151311.index
