127.0.0.1 - - [09/May/2015:01:38:52 +0900] "GET / HTTP/1.1" 404 951
0:0:0:0:0:0:0:1 - - [09/May/2015:01:38:53 +0900] "GET /celab/mainpage/headerMoebius.jsp HTTP/1.1" 200 10001
0:0:0:0:0:0:0:1 - - [09/May/2015:01:38:53 +0900] "GET /celab/images/background5.png HTTP/1.1" 304 -
0:0:0:0:0:0:0:1 - - [09/May/2015:01:38:53 +0900] "GET /favicon.ico HTTP/1.1" 404 973
0:0:0:0:0:0:0:1 - - [09/May/2015:01:39:17 +0900] "GET /celab/login.do?id=milopong&password=12341234 HTTP/1.1" 200 10001
0:0:0:0:0:0:0:1 - - [09/May/2015:01:39:24 +0900] "GET /celab/login.do?id=milopong&password=123412341234 HTTP/1.1" 200 10963
0:0:0:0:0:0:0:1 - - [09/May/2015:01:39:24 +0900] "GET /celab/images/Koala1.jpg HTTP/1.1" 304 -
0:0:0:0:0:0:0:1 - - [09/May/2015:01:39:29 +0900] "GET /celab/Member/mypage.jsp HTTP/1.1" 200 19700
0:0:0:0:0:0:0:1 - - [09/May/2015:01:39:29 +0900] "POST /celab/Wload.do HTTP/1.1" 200 1476
0:0:0:0:0:0:0:1 - - [09/May/2015:01:39:33 +0900] "GET /celab/PrepareChangeMember.do HTTP/1.1" 200 24249
0:0:0:0:0:0:0:1 - - [09/May/2015:01:39:37 +0900] "GET /celab/mainpage/headerMoebius.jsp HTTP/1.1" 200 10963
0:0:0:0:0:0:0:1 - - [09/May/2015:01:39:39 +0900] "GET /celab/AllVolunteer.do?listno=1&chk_menu=1 HTTP/1.1" 200 56061
0:0:0:0:0:0:0:1 - - [09/May/2015:01:39:39 +0900] "GET /celab/images/Desert1.jpg HTTP/1.1" 304 -
0:0:0:0:0:0:0:1 - - [09/May/2015:01:39:54 +0900] "GET /celab/MainMoebius.do HTTP/1.1" 200 16486
127.0.0.1 - - [09/May/2015:13:26:04 +0900] "GET / HTTP/1.1" 404 951
0:0:0:0:0:0:0:1 - - [09/May/2015:13:26:05 +0900] "GET /celab/mainpage/headerMoebius.jsp HTTP/1.1" 200 10001
0:0:0:0:0:0:0:1 - - [09/May/2015:13:26:05 +0900] "GET /favicon.ico HTTP/1.1" 404 973
0:0:0:0:0:0:0:1 - - [09/May/2015:13:26:30 +0900] "GET /celab/login.do?id=milopong&password=12341234 HTTP/1.1" 404 949
0:0:0:0:0:0:0:1 - - [09/May/2015:13:27:07 +0900] "GET /celab/mainpage/headerMoebius.jsp HTTP/1.1" 200 10001
0:0:0:0:0:0:0:1 - - [09/May/2015:13:27:08 +0900] "GET /favicon.ico HTTP/1.1" 404 973
0:0:0:0:0:0:0:1 - - [09/May/2015:13:27:14 +0900] "GET /celab/login.do?id=milopong&password=12341234 HTTP/1.1" 200 10001
0:0:0:0:0:0:0:1 - - [09/May/2015:13:27:22 +0900] "GET /celab/login.do?id=milopong&password=123412341234 HTTP/1.1" 200 10963
0:0:0:0:0:0:0:1 - - [09/May/2015:13:27:22 +0900] "GET /celab/images/Koala1.jpg HTTP/1.1" 404 997
0:0:0:0:0:0:0:1 - - [09/May/2015:13:27:22 +0900] "GET /celab/images/Koala1.jpg HTTP/1.1" 404 997
0:0:0:0:0:0:0:1 - - [09/May/2015:13:27:25 +0900] "GET /celab/Member/mypage.jsp HTTP/1.1" 200 19700
0:0:0:0:0:0:0:1 - - [09/May/2015:13:27:25 +0900] "GET /celab/images/Koala1.jpg HTTP/1.1" 404 997
0:0:0:0:0:0:0:1 - - [09/May/2015:13:27:25 +0900] "GET /celab/images/Koala1.jpg HTTP/1.1" 404 997
0:0:0:0:0:0:0:1 - - [09/May/2015:13:27:25 +0900] "POST /celab/Wload.do HTTP/1.1" 200 1476
0:0:0:0:0:0:0:1 - - [09/May/2015:13:27:27 +0900] "GET /celab/images/Koala1.jpg HTTP/1.1" 404 997
0:0:0:0:0:0:0:1 - - [09/May/2015:13:27:27 +0900] "GET /celab/AllVolunteer.do?listno=1&chk_menu=1 HTTP/1.1" 200 56061
0:0:0:0:0:0:0:1 - - [09/May/2015:13:27:27 +0900] "GET /celab/images/Desert1.jpg HTTP/1.1" 404 999
0:0:0:0:0:0:0:1 - - [09/May/2015:13:27:27 +0900] "GET /celab/images/Koala1.jpg HTTP/1.1" 404 997
0:0:0:0:0:0:0:1 - - [09/May/2015:13:27:31 +0900] "GET /celab/sponsorload.do?listno=1 HTTP/1.1" 200 12691
0:0:0:0:0:0:0:1 - - [09/May/2015:13:27:32 +0900] "GET /celab/images/Koala1.jpg HTTP/1.1" 404 997
0:0:0:0:0:0:0:1 - - [09/May/2015:13:27:32 +0900] "GET /celab/images/Koala1.jpg HTTP/1.1" 404 997
0:0:0:0:0:0:0:1 - - [09/May/2015:13:27:33 +0900] "GET /celab/mainpage/viewMoebius.jsp HTTP/1.1" 200 14958
0:0:0:0:0:0:0:1 - - [09/May/2015:13:27:33 +0900] "GET /celab/images/Koala1.jpg HTTP/1.1" 404 997
0:0:0:0:0:0:0:1 - - [09/May/2015:13:27:33 +0900] "GET /celab/images/Koala1.jpg HTTP/1.1" 404 997
0:0:0:0:0:0:0:1 - - [09/May/2015:13:27:34 +0900] "GET /celab/mainpage/headerMoebius.jsp HTTP/1.1" 200 10963
0:0:0:0:0:0:0:1 - - [09/May/2015:13:27:34 +0900] "GET /celab/images/Koala1.jpg HTTP/1.1" 404 997
0:0:0:0:0:0:0:1 - - [09/May/2015:13:27:34 +0900] "GET /celab/images/Koala1.jpg HTTP/1.1" 404 997
0:0:0:0:0:0:0:1 - - [09/May/2015:13:27:37 +0900] "GET /celab/Manage/headerVolunteerManage.jsp HTTP/1.1" 200 3105
0:0:0:0:0:0:0:1 - - [09/May/2015:13:27:39 +0900] "POST /celab/PrepareVolunteerManage.do HTTP/1.1" 200 1212
0:0:0:0:0:0:0:1 - - [09/May/2015:13:27:41 +0900] "GET /celab/prepareAttendance.do?date=2015-05-15&no=1 HTTP/1.1" 200 11912
127.0.0.1 - - [09/May/2015:17:06:52 +0900] "GET / HTTP/1.1" 404 951
0:0:0:0:0:0:0:1 - - [09/May/2015:17:06:54 +0900] "GET /celab/mainpage/headerMoebius.jsp HTTP/1.1" 200 10153
0:0:0:0:0:0:0:1 - - [09/May/2015:17:06:54 +0900] "GET /favicon.ico HTTP/1.1" 404 973
0:0:0:0:0:0:0:1 - - [09/May/2015:17:07:04 +0900] "POST /celab/login.do HTTP/1.1" 404 977
0:0:0:0:0:0:0:1 - - [09/May/2015:17:08:41 +0900] "POST /celab/login.do HTTP/1.1" 404 977
0:0:0:0:0:0:0:1 - - [09/May/2015:17:08:50 +0900] "GET /celab/mainpage/headerMoebius.jsp HTTP/1.1" 200 10153
0:0:0:0:0:0:0:1 - - [09/May/2015:17:08:50 +0900] "GET /celab/css/allcss.css HTTP/1.1" 304 -
192.168.0.23 - - [09/May/2015:17:08:50 +0900] "GET /celab/images/mlogo.png HTTP/1.1" 304 -
0:0:0:0:0:0:0:1 - - [09/May/2015:17:09:02 +0900] "POST /celab/login.do HTTP/1.1" 404 977
0:0:0:0:0:0:0:1 - - [09/May/2015:17:12:06 +0900] "POST /celab/login.do HTTP/1.1" 404 977
0:0:0:0:0:0:0:1 - - [09/May/2015:17:13:24 +0900] "GET /celab/mainpage/headerMoebius.jsp HTTP/1.1" 200 11115
0:0:0:0:0:0:0:1 - - [09/May/2015:17:13:24 +0900] "GET /celab/css/allcss.css HTTP/1.1" 304 -
192.168.0.23 - - [09/May/2015:17:13:24 +0900] "GET /celab/images/mlogo.png HTTP/1.1" 304 -
0:0:0:0:0:0:0:1 - - [09/May/2015:17:13:24 +0900] "GET /celab/images/Koala1.jpg HTTP/1.1" 404 997
0:0:0:0:0:0:0:1 - - [09/May/2015:17:13:24 +0900] "GET /celab/images/Koala1.jpg HTTP/1.1" 404 997
0:0:0:0:0:0:0:1 - - [09/May/2015:17:13:24 +0900] "GET /celab/images/Koala1.jpg HTTP/1.1" 404 997
0:0:0:0:0:0:0:1 - - [09/May/2015:17:13:33 +0900] "GET /celab/mainpage/headerMoebius.jsp HTTP/1.1" 200 10153
0:0:0:0:0:0:0:1 - - [09/May/2015:17:13:33 +0900] "GET /celab/logout.do HTTP/1.1" 200 10153
0:0:0:0:0:0:0:1 - - [09/May/2015:17:13:33 +0900] "GET /celab/logout.do HTTP/1.1" 200 10153
0:0:0:0:0:0:0:1 - - [09/May/2015:17:13:44 +0900] "POST /celab/login.do HTTP/1.1" 404 977
0:0:0:0:0:0:0:1 - - [09/May/2015:17:13:55 +0900] "GET /celab/logout.do HTTP/1.1" 200 10153
0:0:0:0:0:0:0:1 - - [09/May/2015:17:13:55 +0900] "GET /celab/css/allcss.css HTTP/1.1" 304 -
192.168.0.23 - - [09/May/2015:17:13:55 +0900] "GET /celab/images/mlogo.png HTTP/1.1" 304 -
0:0:0:0:0:0:0:1 - - [09/May/2015:17:13:56 +0900] "GET /celab/logout.do HTTP/1.1" 200 10153
192.168.0.23 - - [09/May/2015:17:13:57 +0900] "GET /celab/images/mlogo.png HTTP/1.1" 304 -
0:0:0:0:0:0:0:1 - - [09/May/2015:17:13:57 +0900] "GET /celab/css/allcss.css HTTP/1.1" 304 -
0:0:0:0:0:0:0:1 - - [09/May/2015:17:13:58 +0900] "GET /celab/logout.do HTTP/1.1" 200 10153
0:0:0:0:0:0:0:1 - - [09/May/2015:17:13:58 +0900] "GET /celab/css/allcss.css HTTP/1.1" 304 -
192.168.0.23 - - [09/May/2015:17:13:58 +0900] "GET /celab/images/mlogo.png HTTP/1.1" 304 -
0:0:0:0:0:0:0:1 - - [09/May/2015:17:13:59 +0900] "GET /celab/logout.do HTTP/1.1" 200 10153
0:0:0:0:0:0:0:1 - - [09/May/2015:17:13:59 +0900] "GET /celab/css/allcss.css HTTP/1.1" 304 -
192.168.0.23 - - [09/May/2015:17:13:59 +0900] "GET /celab/images/mlogo.png HTTP/1.1" 304 -
0:0:0:0:0:0:0:1 - - [09/May/2015:17:15:21 +0900] "POST /celab/login.do HTTP/1.1" 404 985
0:0:0:0:0:0:0:1 - - [09/May/2015:17:15:24 +0900] "POST /celab/login.do HTTP/1.1" 404 985
0:0:0:0:0:0:0:1 - - [09/May/2015:17:15:27 +0900] "GET /celab/logout.do HTTP/1.1" 200 10180
0:0:0:0:0:0:0:1 - - [09/May/2015:17:15:27 +0900] "GET /celab/css/allcss.css HTTP/1.1" 304 -
192.168.0.23 - - [09/May/2015:17:15:27 +0900] "GET /celab/images/mlogo.png HTTP/1.1" 304 -
0:0:0:0:0:0:0:1 - - [09/May/2015:17:15:39 +0900] "POST /celab/login.do HTTP/1.1" 404 977
0:0:0:0:0:0:0:1 - - [09/May/2015:17:17:16 +0900] "GET /celab/logout.do HTTP/1.1" 200 10180
0:0:0:0:0:0:0:1 - - [09/May/2015:17:17:16 +0900] "GET /celab/css/allcss.css HTTP/1.1" 304 -
192.168.0.23 - - [09/May/2015:17:17:16 +0900] "GET /celab/images/mlogo.png HTTP/1.1" 304 -
0:0:0:0:0:0:0:1 - - [09/May/2015:17:17:24 +0900] "POST /celab/login.do HTTP/1.1" 404 977
0:0:0:0:0:0:0:1 - - [09/May/2015:17:17:29 +0900] "GET /celab/logout.do HTTP/1.1" 200 10180
192.168.0.23 - - [09/May/2015:17:17:29 +0900] "GET /celab/images/mlogo.png HTTP/1.1" 304 -
0:0:0:0:0:0:0:1 - - [09/May/2015:17:17:29 +0900] "GET /celab/css/allcss.css HTTP/1.1" 304 -
0:0:0:0:0:0:0:1 - - [09/May/2015:17:17:39 +0900] "POST /celab/login.do HTTP/1.1" 404 977
0:0:0:0:0:0:0:1 - - [09/May/2015:17:19:32 +0900] "GET /celab/logout.do HTTP/1.1" 200 10180
0:0:0:0:0:0:0:1 - - [09/May/2015:17:19:32 +0900] "GET /celab/css/allcss.css HTTP/1.1" 304 -
192.168.0.23 - - [09/May/2015:17:19:32 +0900] "GET /celab/images/mlogo.png HTTP/1.1" 304 -
0:0:0:0:0:0:0:1 - - [09/May/2015:17:19:40 +0900] "POST /celab/login.do HTTP/1.1" 404 977
0:0:0:0:0:0:0:1 - - [09/May/2015:17:21:04 +0900] "GET /celab/logout.do HTTP/1.1" 200 10180
0:0:0:0:0:0:0:1 - - [09/May/2015:17:21:04 +0900] "GET /celab/css/allcss.css HTTP/1.1" 304 -
192.168.0.23 - - [09/May/2015:17:21:04 +0900] "GET /celab/images/mlogo.png HTTP/1.1" 304 -
0:0:0:0:0:0:0:1 - - [09/May/2015:17:21:16 +0900] "POST /celab/login.do HTTP/1.1" 404 973
0:0:0:0:0:0:0:1 - - [09/May/2015:17:21:21 +0900] "POST /celab/login.do HTTP/1.1" 404 973
0:0:0:0:0:0:0:1 - - [09/May/2015:17:23:11 +0900] "GET /celab/logout.do HTTP/1.1" 200 10153
0:0:0:0:0:0:0:1 - - [09/May/2015:17:23:11 +0900] "GET /celab/css/allcss.css HTTP/1.1" 304 -
192.168.0.23 - - [09/May/2015:17:23:11 +0900] "GET /celab/images/mlogo.png HTTP/1.1" 304 -
0:0:0:0:0:0:0:1 - - [09/May/2015:17:23:15 +0900] "POST /celab/login.do HTTP/1.1" 404 973
0:0:0:0:0:0:0:1 - - [09/May/2015:17:25:03 +0900] "GET /celab/logout.do HTTP/1.1" 200 10153
0:0:0:0:0:0:0:1 - - [09/May/2015:17:25:03 +0900] "GET /celab/css/allcss.css HTTP/1.1" 304 -
192.168.0.23 - - [09/May/2015:17:25:03 +0900] "GET /celab/images/mlogo.png HTTP/1.1" 304 -
0:0:0:0:0:0:0:1 - - [09/May/2015:17:25:09 +0900] "POST /celab/login.do HTTP/1.1" 404 973
0:0:0:0:0:0:0:1 - - [09/May/2015:17:26:41 +0900] "GET /celab/logout.do HTTP/1.1" 200 10153
0:0:0:0:0:0:0:1 - - [09/May/2015:17:26:41 +0900] "GET /celab/css/allcss.css HTTP/1.1" 304 -
192.168.0.23 - - [09/May/2015:17:26:41 +0900] "GET /celab/images/mlogo.png HTTP/1.1" 304 -
0:0:0:0:0:0:0:1 - - [09/May/2015:17:26:52 +0900] "POST /celab/login.do HTTP/1.1" 200 -
0:0:0:0:0:0:0:1 - - [09/May/2015:17:26:57 +0900] "GET /celab/logout.do HTTP/1.1" 200 10153
192.168.0.23 - - [09/May/2015:17:26:57 +0900] "GET /celab/images/mlogo.png HTTP/1.1" 304 -
0:0:0:0:0:0:0:1 - - [09/May/2015:17:26:57 +0900] "GET /celab/css/allcss.css HTTP/1.1" 304 -
0:0:0:0:0:0:0:1 - - [09/May/2015:17:27:06 +0900] "POST /celab/login.do HTTP/1.1" 200 545
0:0:0:0:0:0:0:1 - - [09/May/2015:17:27:58 +0900] "GET /celab/logout.do HTTP/1.1" 200 10153
0:0:0:0:0:0:0:1 - - [09/May/2015:17:27:58 +0900] "GET /celab/css/allcss.css HTTP/1.1" 304 -
192.168.0.23 - - [09/May/2015:17:27:58 +0900] "GET /celab/images/mlogo.png HTTP/1.1" 304 -
0:0:0:0:0:0:0:1 - - [09/May/2015:17:28:18 +0900] "POST /celab/login.do HTTP/1.1" 200 11
0:0:0:0:0:0:0:1 - - [09/May/2015:17:28:25 +0900] "POST /celab/login.do HTTP/1.1" 200 7
0:0:0:0:0:0:0:1 - - [09/May/2015:17:30:14 +0900] "GET /celab/logout.do HTTP/1.1" 200 11227
0:0:0:0:0:0:0:1 - - [09/May/2015:17:30:14 +0900] "GET /celab/css/allcss.css HTTP/1.1" 304 -
192.168.0.23 - - [09/May/2015:17:30:14 +0900] "GET /celab/images/mlogo.png HTTP/1.1" 304 -
0:0:0:0:0:0:0:1 - - [09/May/2015:17:30:14 +0900] "GET /celab/images/ HTTP/1.1" 404 977
0:0:0:0:0:0:0:1 - - [09/May/2015:17:30:15 +0900] "GET /celab/images/ HTTP/1.1" 404 977
0:0:0:0:0:0:0:1 - - [09/May/2015:17:30:15 +0900] "GET /celab/images/ HTTP/1.1" 404 977
0:0:0:0:0:0:0:1 - - [09/May/2015:17:30:25 +0900] "POST /celab/login.do HTTP/1.1" 200 7
0:0:0:0:0:0:0:1 - - [09/May/2015:17:33:33 +0900] "GET /celab/logout.do HTTP/1.1" 200 11227
192.168.0.23 - - [09/May/2015:17:33:33 +0900] "GET /celab/images/mlogo.png HTTP/1.1" 304 -
0:0:0:0:0:0:0:1 - - [09/May/2015:17:33:33 +0900] "GET /celab/css/allcss.css HTTP/1.1" 304 -
0:0:0:0:0:0:0:1 - - [09/May/2015:17:33:33 +0900] "GET /celab/images/ HTTP/1.1" 404 977
0:0:0:0:0:0:0:1 - - [09/May/2015:17:33:33 +0900] "GET /celab/images/ HTTP/1.1" 404 977
0:0:0:0:0:0:0:1 - - [09/May/2015:17:33:33 +0900] "GET /celab/images/ HTTP/1.1" 404 977
0:0:0:0:0:0:0:1 - - [09/May/2015:17:33:40 +0900] "POST /celab/login.do HTTP/1.1" 200 545
0:0:0:0:0:0:0:1 - - [09/May/2015:17:42:12 +0900] "GET /celab/logout.do HTTP/1.1" 200 9995
0:0:0:0:0:0:0:1 - - [09/May/2015:17:42:12 +0900] "GET /celab/css/allcss.css HTTP/1.1" 304 -
192.168.0.23 - - [09/May/2015:17:42:12 +0900] "GET /celab/images/mlogo.png HTTP/1.1" 304 -
0:0:0:0:0:0:0:1 - - [09/May/2015:17:42:43 +0900] "GET /celab/logout.do HTTP/1.1" 200 9929
0:0:0:0:0:0:0:1 - - [09/May/2015:17:42:43 +0900] "GET /celab/css/allcss.css HTTP/1.1" 304 -
192.168.0.23 - - [09/May/2015:17:42:43 +0900] "GET /celab/images/mlogo.png HTTP/1.1" 304 -
0:0:0:0:0:0:0:1 - - [09/May/2015:17:42:52 +0900] "GET /celab/login.do?id=milopong&password=123412341234 HTTP/1.1" 200 10833
0:0:0:0:0:0:0:1 - - [09/May/2015:17:42:52 +0900] "GET /celab/images/Koala1.jpg HTTP/1.1" 404 997
0:0:0:0:0:0:0:1 - - [09/May/2015:17:42:52 +0900] "GET /celab/images/Koala1.jpg HTTP/1.1" 404 997
0:0:0:0:0:0:0:1 - - [09/May/2015:17:43:57 +0900] "GET /celab/login.do?id=milopong&password=123412341234 HTTP/1.1" 200 10833
0:0:0:0:0:0:0:1 - - [09/May/2015:17:43:57 +0900] "GET /celab/css/allcss.css HTTP/1.1" 304 -
192.168.0.23 - - [09/May/2015:17:43:57 +0900] "GET /celab/images/mlogo.png HTTP/1.1" 304 -
0:0:0:0:0:0:0:1 - - [09/May/2015:17:43:57 +0900] "GET /celab/images/Koala1.jpg HTTP/1.1" 404 997
0:0:0:0:0:0:0:1 - - [09/May/2015:17:43:57 +0900] "GET /celab/images/Koala1.jpg HTTP/1.1" 404 997
0:0:0:0:0:0:0:1 - - [09/May/2015:17:43:57 +0900] "GET /celab/images/Koala1.jpg HTTP/1.1" 404 997
0:0:0:0:0:0:0:1 - - [09/May/2015:17:43:59 +0900] "GET /celab/logout.do HTTP/1.1" 200 9941
0:0:0:0:0:0:0:1 - - [09/May/2015:17:44:16 +0900] "POST /celab/login.do HTTP/1.1" 200 10833
0:0:0:0:0:0:0:1 - - [09/May/2015:17:44:16 +0900] "GET /celab/images/Koala1.jpg HTTP/1.1" 404 997
0:0:0:0:0:0:0:1 - - [09/May/2015:17:44:16 +0900] "GET /celab/images/Koala1.jpg HTTP/1.1" 404 997
0:0:0:0:0:0:0:1 - - [09/May/2015:17:44:27 +0900] "GET /celab/logout.do HTTP/1.1" 200 9941
0:0:0:0:0:0:0:1 - - [09/May/2015:17:44:32 +0900] "POST /celab/login.do HTTP/1.1" 200 9941
0:0:0:0:0:0:0:1 - - [09/May/2015:17:44:35 +0900] "POST /celab/login.do HTTP/1.1" 200 9941
0:0:0:0:0:0:0:1 - - [09/May/2015:17:44:37 +0900] "POST /celab/login.do HTTP/1.1" 200 9941
0:0:0:0:0:0:0:1 - - [09/May/2015:17:46:30 +0900] "POST /celab/login.do HTTP/1.1" 200 9991
192.168.0.23 - - [09/May/2015:17:46:30 +0900] "GET /celab/images/mlogo.png HTTP/1.1" 304 -
0:0:0:0:0:0:0:1 - - [09/May/2015:17:46:30 +0900] "GET /celab/css/allcss.css HTTP/1.1" 304 -
0:0:0:0:0:0:0:1 - - [09/May/2015:17:46:33 +0900] "POST /celab/login.do HTTP/1.1" 200 9991
0:0:0:0:0:0:0:1 - - [09/May/2015:17:46:33 +0900] "GET /celab/css/allcss.css HTTP/1.1" 304 -
192.168.0.23 - - [09/May/2015:17:46:33 +0900] "GET /celab/images/mlogo.png HTTP/1.1" 304 -
127.0.0.1 - - [09/May/2015:18:02:45 +0900] "GET / HTTP/1.1" 404 951
0:0:0:0:0:0:0:1 - - [09/May/2015:18:02:50 +0900] "GET /celab/login.do HTTP/1.1" 400 1058
0:0:0:0:0:0:0:1 - - [09/May/2015:18:03:01 +0900] "GET /celab/main.do HTTP/1.1" 200 10249
0:0:0:0:0:0:0:1 - - [09/May/2015:18:03:01 +0900] "GET /celab/main.do HTTP/1.1" 200 10249
0:0:0:0:0:0:0:1 - - [09/May/2015:18:05:06 +0900] "GET /celab/main.do HTTP/1.1" 200 10338
192.168.0.23 - - [09/May/2015:18:05:06 +0900] "GET /celab/images/mlogo.png HTTP/1.1" 304 -
0:0:0:0:0:0:0:1 - - [09/May/2015:18:05:06 +0900] "GET /celab/css/allcss.css HTTP/1.1" 304 -
0:0:0:0:0:0:0:1 - - [09/May/2015:18:05:14 +0900] "POST /celab/idPassCheck.do HTTP/1.1" 200 7
0:0:0:0:0:0:0:1 - - [09/May/2015:18:05:14 +0900] "POST /celab/login.do HTTP/1.1" 200 11237
0:0:0:0:0:0:0:1 - - [09/May/2015:18:05:14 +0900] "GET /celab/images/Koala1.jpg HTTP/1.1" 404 997
0:0:0:0:0:0:0:1 - - [09/May/2015:18:05:14 +0900] "GET /celab/images/Koala1.jpg HTTP/1.1" 404 997
0:0:0:0:0:0:0:1 - - [09/May/2015:18:05:23 +0900] "GET /celab/logout.do HTTP/1.1" 200 10338
0:0:0:0:0:0:0:1 - - [09/May/2015:18:05:25 +0900] "POST /celab/idPassCheck.do HTTP/1.1" 200 4
0:0:0:0:0:0:0:1 - - [09/May/2015:18:05:32 +0900] "POST /celab/idPassCheck.do HTTP/1.1" 200 4
0:0:0:0:0:0:0:1 - - [09/May/2015:18:05:37 +0900] "POST /celab/idPassCheck.do HTTP/1.1" 200 4
0:0:0:0:0:0:0:1 - - [09/May/2015:18:05:49 +0900] "POST /celab/idPassCheck.do HTTP/1.1" 200 4
0:0:0:0:0:0:0:1 - - [09/May/2015:18:05:55 +0900] "POST /celab/idPassCheck.do HTTP/1.1" 200 7
0:0:0:0:0:0:0:1 - - [09/May/2015:18:05:55 +0900] "POST /celab/login.do HTTP/1.1" 200 11237
0:0:0:0:0:0:0:1 - - [09/May/2015:18:05:55 +0900] "GET /celab/images/Koala1.jpg HTTP/1.1" 404 997
0:0:0:0:0:0:0:1 - - [09/May/2015:18:05:55 +0900] "GET /celab/images/Koala1.jpg HTTP/1.1" 404 997
0:0:0:0:0:0:0:1 - - [09/May/2015:18:06:00 +0900] "GET /celab/PrepareChangeMember.do HTTP/1.1" 200 24524
0:0:0:0:0:0:0:1 - - [09/May/2015:18:06:00 +0900] "GET /celab/images/Koala1.jpg HTTP/1.1" 404 997
0:0:0:0:0:0:0:1 - - [09/May/2015:18:06:00 +0900] "GET /celab/images/Koala1.jpg HTTP/1.1" 404 997
0:0:0:0:0:0:0:1 - - [09/May/2015:18:06:04 +0900] "GET /celab/mainpage/headerMoebius.jsp HTTP/1.1" 200 11230
0:0:0:0:0:0:0:1 - - [09/May/2015:18:06:04 +0900] "GET /celab/images/Koala1.jpg HTTP/1.1" 404 997
0:0:0:0:0:0:0:1 - - [09/May/2015:18:06:04 +0900] "GET /celab/images/Koala1.jpg HTTP/1.1" 404 997
0:0:0:0:0:0:0:1 - - [09/May/2015:18:06:07 +0900] "GET /celab/AllVolunteer.do?listno=1&chk_menu=1 HTTP/1.1" 200 56336
0:0:0:0:0:0:0:1 - - [09/May/2015:18:06:07 +0900] "GET /celab/images/Koala1.jpg HTTP/1.1" 404 997
0:0:0:0:0:0:0:1 - - [09/May/2015:18:06:07 +0900] "GET /celab/images/Desert1.jpg HTTP/1.1" 404 999
0:0:0:0:0:0:0:1 - - [09/May/2015:18:06:07 +0900] "GET /celab/images/Koala1.jpg HTTP/1.1" 404 997
0:0:0:0:0:0:0:1 - - [09/May/2015:18:07:25 +0900] "GET /celab/AllVolunteer.do?listno=1&chk_menu=1 HTTP/1.1" 200 55441
0:0:0:0:0:0:0:1 - - [09/May/2015:18:07:25 +0900] "GET /celab/css/allcss.css HTTP/1.1" 304 -
192.168.0.23 - - [09/May/2015:18:07:25 +0900] "GET /celab/images/mlogo.png HTTP/1.1" 304 -
0:0:0:0:0:0:0:1 - - [09/May/2015:18:07:25 +0900] "GET /celab/images/Desert1.jpg HTTP/1.1" 404 999
0:0:0:0:0:0:0:1 - - [09/May/2015:18:07:25 +0900] "GET /celab/images/Desert1.jpg HTTP/1.1" 404 999
192.168.0.23 - - [09/May/2015:18:07:25 +0900] "GET /celab/images/Search.png HTTP/1.1" 304 -
0:0:0:0:0:0:0:1 - - [09/May/2015:18:07:34 +0900] "POST /celab/idPassCheck.do HTTP/1.1" 200 7
0:0:0:0:0:0:0:1 - - [09/May/2015:18:07:34 +0900] "POST /celab/login.do HTTP/1.1" 200 11243
0:0:0:0:0:0:0:1 - - [09/May/2015:18:07:34 +0900] "GET /celab/celab/images/Koala1.jpg HTTP/1.1" 404 1009
0:0:0:0:0:0:0:1 - - [09/May/2015:18:07:34 +0900] "GET /celab/celab/images/Koala1.jpg HTTP/1.1" 404 1009
0:0:0:0:0:0:0:1 - - [09/May/2015:18:07:39 +0900] "GET /celab/AllVolunteer.do?listno=1&chk_sex=0&chk_address=0&chk_ability=0 HTTP/1.1" 200 56342
0:0:0:0:0:0:0:1 - - [09/May/2015:18:07:39 +0900] "GET /celab/celab/images/Koala1.jpg HTTP/1.1" 404 1009
0:0:0:0:0:0:0:1 - - [09/May/2015:18:07:39 +0900] "GET /celab/images/Desert1.jpg HTTP/1.1" 404 999
0:0:0:0:0:0:0:1 - - [09/May/2015:18:07:39 +0900] "GET /celab/celab/images/Koala1.jpg HTTP/1.1" 404 1009
0:0:0:0:0:0:0:1 - - [09/May/2015:18:07:44 +0900] "GET /celab/Manage/headerVolunteerManage.jsp HTTP/1.1" 200 3105
0:0:0:0:0:0:0:1 - - [09/May/2015:18:07:45 +0900] "POST /celab/PrepareVolunteerManage.do HTTP/1.1" 200 1212
0:0:0:0:0:0:0:1 - - [09/May/2015:18:07:49 +0900] "GET /celab/mainpage/headerMoebius.jsp HTTP/1.1" 200 11236
0:0:0:0:0:0:0:1 - - [09/May/2015:18:07:49 +0900] "GET /celab/celab/images/Koala1.jpg HTTP/1.1" 404 1009
0:0:0:0:0:0:0:1 - - [09/May/2015:18:07:49 +0900] "GET /celab/celab/images/Koala1.jpg HTTP/1.1" 404 1009
0:0:0:0:0:0:0:1 - - [09/May/2015:18:07:51 +0900] "GET /celab/PrepareChangeMember.do HTTP/1.1" 200 24530
0:0:0:0:0:0:0:1 - - [09/May/2015:18:07:51 +0900] "GET /celab/celab/images/Koala1.jpg HTTP/1.1" 404 1009
0:0:0:0:0:0:0:1 - - [09/May/2015:18:07:51 +0900] "GET /celab/images/Koala1.jpg HTTP/1.1" 404 997
0:0:0:0:0:0:0:1 - - [09/May/2015:18:07:51 +0900] "GET /celab/celab/images/Koala1.jpg HTTP/1.1" 404 1009
0:0:0:0:0:0:0:1 - - [09/May/2015:18:07:51 +0900] "GET /celab/images/Koala1.jpg HTTP/1.1" 404 997
0:0:0:0:0:0:0:1 - - [09/May/2015:18:08:18 +0900] "GET /celab/AllVolunteer.do?listno=1&chk_menu=1 HTTP/1.1" 200 56342
0:0:0:0:0:0:0:1 - - [09/May/2015:18:08:18 +0900] "GET /celab/celab/images/Koala1.jpg HTTP/1.1" 404 1009
0:0:0:0:0:0:0:1 - - [09/May/2015:18:08:18 +0900] "GET /celab/celab/images/Koala1.jpg HTTP/1.1" 404 1009
0:0:0:0:0:0:0:1 - - [09/May/2015:18:08:18 +0900] "GET /celab/images/Desert1.jpg HTTP/1.1" 404 999
0:0:0:0:0:0:0:1 - - [09/May/2015:18:08:18 +0900] "GET /celab/celab/images/Koala1.jpg HTTP/1.1" 404 1009
0:0:0:0:0:0:0:1 - - [09/May/2015:18:08:22 +0900] "GET /celab/logout.do HTTP/1.1" 200 10338
0:0:0:0:0:0:0:1 - - [09/May/2015:18:08:24 +0900] "GET /celab/PrepareRegistMember.do HTTP/1.1" 200 22485
0:0:0:0:0:0:0:1 - - [09/May/2015:18:08:31 +0900] "POST /celab/idCheck.do HTTP/1.1" 200 36
0:0:0:0:0:0:0:1 - - [09/May/2015:18:09:51 +0900] "POST /celab/uploadProfileImage.do HTTP/1.1" 200 7
0:0:0:0:0:0:0:1 - - [09/May/2015:18:09:51 +0900] "POST /celab/RegistMember.do HTTP/1.1" 200 35
0:0:0:0:0:0:0:1 - - [09/May/2015:18:09:51 +0900] "GET /celab/Member/notifyregistedmember.jsp HTTP/1.1" 200 13796
0:0:0:0:0:0:0:1 - - [09/May/2015:18:09:51 +0900] "GET /celab/celab/images/Penguins1.jpg HTTP/1.1" 404 1015
0:0:0:0:0:0:0:1 - - [09/May/2015:18:09:51 +0900] "GET /celab/celab/images/Penguins1.jpg HTTP/1.1" 404 1015
0:0:0:0:0:0:0:1 - - [09/May/2015:18:09:56 +0900] "GET /celab/PrepareChangeMember.do HTTP/1.1" 200 23907
0:0:0:0:0:0:0:1 - - [09/May/2015:18:09:56 +0900] "GET /celab/celab/images/Penguins1.jpg HTTP/1.1" 404 1015
0:0:0:0:0:0:0:1 - - [09/May/2015:18:09:56 +0900] "GET /celab/celab/images/Penguins1.jpg HTTP/1.1" 404 1015
0:0:0:0:0:0:0:1 - - [09/May/2015:18:09:56 +0900] "GET /celab/images/Penguins1.jpg HTTP/1.1" 200 777835
0:0:0:0:0:0:0:1 - - [09/May/2015:18:09:58 +0900] "GET /celab/PrepareChangeMember.do HTTP/1.1" 200 23907
0:0:0:0:0:0:0:1 - - [09/May/2015:18:09:58 +0900] "GET /celab/celab/images/Penguins1.jpg HTTP/1.1" 404 1015
0:0:0:0:0:0:0:1 - - [09/May/2015:18:09:58 +0900] "GET /celab/images/Penguins1.jpg HTTP/1.1" 304 -
0:0:0:0:0:0:0:1 - - [09/May/2015:18:09:58 +0900] "GET /celab/celab/images/Penguins1.jpg HTTP/1.1" 404 1015
0:0:0:0:0:0:0:1 - - [09/May/2015:18:10:00 +0900] "GET /celab/mainpage/headerMoebius.jsp HTTP/1.1" 200 10822
0:0:0:0:0:0:0:1 - - [09/May/2015:18:10:00 +0900] "GET /celab/celab/images/Penguins1.jpg HTTP/1.1" 404 1015
0:0:0:0:0:0:0:1 - - [09/May/2015:18:10:00 +0900] "GET /celab/celab/images/Penguins1.jpg HTTP/1.1" 404 1015
0:0:0:0:0:0:0:1 - - [09/May/2015:18:10:20 +0900] "GET /celab/mainpage/headerMoebius.jsp HTTP/1.1" 200 10813
0:0:0:0:0:0:0:1 - - [09/May/2015:18:10:20 +0900] "GET /celab/css/allcss.css HTTP/1.1" 304 -
192.168.0.23 - - [09/May/2015:18:10:20 +0900] "GET /celab/images/mlogo.png HTTP/1.1" 304 -
0:0:0:0:0:0:0:1 - - [09/May/2015:18:10:20 +0900] "GET /celab/images/Penguins1.jpg HTTP/1.1" 304 -
0:0:0:0:0:0:0:1 - - [09/May/2015:18:10:22 +0900] "GET /celab/PrepareChangeMember.do HTTP/1.1" 200 23898
0:0:0:0:0:0:0:1 - - [09/May/2015:18:10:28 +0900] "GET /celab/mainpage/headerMoebius.jsp HTTP/1.1" 200 10813
0:0:0:0:0:0:0:1 - - [09/May/2015:18:10:28 +0900] "GET /celab/images/Penguins1.jpg HTTP/1.1" 304 -
0:0:0:0:0:0:0:1 - - [09/May/2015:18:10:30 +0900] "GET /celab/AllVolunteer.do?listno=1&chk_menu=1 HTTP/1.1" 200 55919
0:0:0:0:0:0:0:1 - - [09/May/2015:18:10:30 +0900] "GET /celab/images/Desert1.jpg HTTP/1.1" 404 999
0:0:0:0:0:0:0:1 - - [09/May/2015:18:10:32 +0900] "GET /celab/pointproductload.do?check_shopping=1 HTTP/1.1" 500 4278
0:0:0:0:0:0:0:1 - - [09/May/2015:18:10:35 +0900] "GET /celab/sponsorload.do?listno=1 HTTP/1.1" 200 12549
0:0:0:0:0:0:0:1 - - [09/May/2015:18:10:35 +0900] "GET /celab/images/Penguins1.jpg HTTP/1.1" 304 -
0:0:0:0:0:0:0:1 - - [09/May/2015:18:10:36 +0900] "GET /celab/mainpage/headerMoebius.jsp HTTP/1.1" 200 10813
0:0:0:0:0:0:0:1 - - [09/May/2015:18:10:43 +0900] "GET /celab/logout.do HTTP/1.1" 200 10335
0:0:0:0:0:0:0:1 - - [09/May/2015:18:10:44 +0900] "POST /celab/idPassCheck.do HTTP/1.1" 200 4
0:0:0:0:0:0:0:1 - - [09/May/2015:18:10:54 +0900] "POST /celab/idPassCheck.do HTTP/1.1" 200 7
0:0:0:0:0:0:0:1 - - [09/May/2015:18:10:54 +0900] "POST /celab/login.do HTTP/1.1" 200 10820
0:0:0:0:0:0:0:1 - - [09/May/2015:18:10:54 +0900] "GET /celab/images/Penguins1.jpg HTTP/1.1" 304 -
0:0:0:0:0:0:0:1 - - [09/May/2015:18:10:59 +0900] "GET /celab/logout.do HTTP/1.1" 200 10335
0:0:0:0:0:0:0:1 - - [09/May/2015:18:11:01 +0900] "GET /celab/PrepareRegistMember.do HTTP/1.1" 200 22482
0:0:0:0:0:0:0:1 - - [09/May/2015:18:11:09 +0900] "POST /celab/idCheck.do HTTP/1.1" 200 36
0:0:0:0:0:0:0:1 - - [09/May/2015:18:12:25 +0900] "POST /celab/uploadProfileImage.do HTTP/1.1" 200 7
0:0:0:0:0:0:0:1 - - [09/May/2015:18:12:25 +0900] "POST /celab/RegistMember.do HTTP/1.1" 200 35
0:0:0:0:0:0:0:1 - - [09/May/2015:18:12:25 +0900] "GET /celab/Member/notifyregistedmember.jsp HTTP/1.1" 200 13650
0:0:0:0:0:0:0:1 - - [09/May/2015:18:12:25 +0900] "GET /celab/images/Hydrangeas1.jpg HTTP/1.1" 200 595284
0:0:0:0:0:0:0:1 - - [09/May/2015:18:12:32 +0900] "GET /celab/mainpage/headerMoebius.jsp HTTP/1.1" 200 10676
0:0:0:0:0:0:0:1 - - [09/May/2015:18:12:32 +0900] "GET /celab/images/Hydrangeas1.jpg HTTP/1.1" 304 -
0:0:0:0:0:0:0:1 - - [09/May/2015:18:12:40 +0900] "GET /celab/Member/mypage.jsp HTTP/1.1" 200 19413
0:0:0:0:0:0:0:1 - - [09/May/2015:18:12:40 +0900] "GET /celab/images/Hydrangeas1.jpg HTTP/1.1" 304 -
0:0:0:0:0:0:0:1 - - [09/May/2015:18:12:40 +0900] "POST /celab/Wload.do HTTP/1.1" 200 64
0:0:0:0:0:0:0:1 - - [09/May/2015:18:12:42 +0900] "GET /celab/mainpage/headerMoebius.jsp HTTP/1.1" 200 10676
0:0:0:0:0:0:0:1 - - [09/May/2015:18:12:43 +0900] "GET /celab/images/Hydrangeas1.jpg HTTP/1.1" 304 -
0:0:0:0:0:0:0:1 - - [09/May/2015:18:12:49 +0900] "GET /celab/mainpage/viewMoebius.jsp HTTP/1.1" 200 14679
0:0:0:0:0:0:0:1 - - [09/May/2015:18:12:49 +0900] "GET /celab/images/Hydrangeas1.jpg HTTP/1.1" 304 -
0:0:0:0:0:0:0:1 - - [09/May/2015:18:13:58 +0900] "GET /celab/PrepareChangeMember.do HTTP/1.1" 200 23697
0:0:0:0:0:0:0:1 - - [09/May/2015:18:13:58 +0900] "GET /celab/images/Hydrangeas1.jpg HTTP/1.1" 304 -
0:0:0:0:0:0:0:1 - - [09/May/2015:18:14:07 +0900] "GET /celab/mainpage/headerMoebius.jsp HTTP/1.1" 200 10676
0:0:0:0:0:0:0:1 - - [09/May/2015:18:14:07 +0900] "GET /celab/images/Hydrangeas1.jpg HTTP/1.1" 304 -
0:0:0:0:0:0:0:1 - - [09/May/2015:18:14:30 +0900] "GET /celab/MainMoebius.do HTTP/1.1" 200 15904
0:0:0:0:0:0:0:1 - - [09/May/2015:18:14:30 +0900] "GET /celab/images/Desert1.jpg HTTP/1.1" 404 999
0:0:0:0:0:0:0:1 - - [09/May/2015:18:15:01 +0900] "GET /celab/mainpage/headerMoebius.jsp HTTP/1.1" 200 10676
0:0:0:0:0:0:0:1 - - [09/May/2015:18:15:01 +0900] "GET /celab/images/Hydrangeas1.jpg HTTP/1.1" 304 -
0:0:0:0:0:0:0:1 - - [09/May/2015:18:15:13 +0900] "GET /celab/Manage/headerVolunteerManage.jsp HTTP/1.1" 200 3105
0:0:0:0:0:0:0:1 - - [09/May/2015:18:15:41 +0900] "POST /celab/PrepareVolunteerManage.do HTTP/1.1" 200 12
0:0:0:0:0:0:0:1 - - [09/May/2015:18:15:48 +0900] "GET /celab/loadAbility.do HTTP/1.1" 200 26032
0:0:0:0:0:0:0:1 - - [09/May/2015:18:15:48 +0900] "GET /celab/images/Hydrangeas1.jpg HTTP/1.1" 304 -
0:0:0:0:0:0:0:1 - - [09/May/2015:18:16:56 +0900] "POST /celab/upload.do HTTP/1.1" 200 7
0:0:0:0:0:0:0:1 - - [09/May/2015:18:16:57 +0900] "POST /celab/registVolunteer.do HTTP/1.1" 200 1023
0:0:0:0:0:0:0:1 - - [09/May/2015:18:16:58 +0900] "GET /celab/AllVolunteer.do?listno=1&chk_sex=0&chk_address=0&chk_ability=0 HTTP/1.1" 200 56647
0:0:0:0:0:0:0:1 - - [09/May/2015:18:16:58 +0900] "GET /celab/images/Hydrangeas1.jpg HTTP/1.1" 304 -
0:0:0:0:0:0:0:1 - - [09/May/2015:18:16:58 +0900] "GET /celab/images/Desert1.jpg HTTP/1.1" 404 999
0:0:0:0:0:0:0:1 - - [09/May/2015:18:16:58 +0900] "GET /celab/images/Jellyfish1.jpg HTTP/1.1" 200 775702
0:0:0:0:0:0:0:1 - - [09/May/2015:18:17:07 +0900] "GET /celab/prepareDetailView.do?no=2&listno=1 HTTP/1.1" 200 17523
0:0:0:0:0:0:0:1 - - [09/May/2015:18:17:07 +0900] "GET /celab/images/Jellyfish1.jpg HTTP/1.1" 304 -
0:0:0:0:0:0:0:1 - - [09/May/2015:18:17:11 +0900] "GET /celab/logout.do HTTP/1.1" 200 10335
0:0:0:0:0:0:0:1 - - [09/May/2015:18:17:12 +0900] "POST /celab/idPassCheck.do HTTP/1.1" 200 7
0:0:0:0:0:0:0:1 - - [09/May/2015:18:17:12 +0900] "POST /celab/login.do HTTP/1.1" 200 10820
0:0:0:0:0:0:0:1 - - [09/May/2015:18:17:12 +0900] "GET /celab/images/Penguins1.jpg HTTP/1.1" 304 -
0:0:0:0:0:0:0:1 - - [09/May/2015:18:17:17 +0900] "GET /celab/AllVolunteer.do?listno=1&chk_sex=0&chk_address=0&chk_ability=0 HTTP/1.1" 200 56784
0:0:0:0:0:0:0:1 - - [09/May/2015:18:17:17 +0900] "GET /celab/images/Jellyfish1.jpg HTTP/1.1" 304 -
0:0:0:0:0:0:0:1 - - [09/May/2015:18:17:17 +0900] "GET /celab/images/Desert1.jpg HTTP/1.1" 404 999
0:0:0:0:0:0:0:1 - - [09/May/2015:18:17:20 +0900] "GET /celab/prepareDetailView.do?no=2&listno=1 HTTP/1.1" 200 17660
0:0:0:0:0:0:0:1 - - [09/May/2015:18:17:20 +0900] "GET /celab/images/Jellyfish1.jpg HTTP/1.1" 304 -
0:0:0:0:0:0:0:1 - - [09/May/2015:18:17:23 +0900] "GET /celab/applyVolunteer.do?no=2 HTTP/1.1" 400 1072
0:0:0:0:0:0:0:1 - - [09/May/2015:18:20:12 +0900] "GET /celab/prepareDetailView.do?no=2&listno=1 HTTP/1.1" 200 17670
0:0:0:0:0:0:0:1 - - [09/May/2015:18:20:12 +0900] "GET /celab/css/allcss.css HTTP/1.1" 304 -
192.168.0.23 - - [09/May/2015:18:20:12 +0900] "GET /celab/images/mlogo.png HTTP/1.1" 304 -
0:0:0:0:0:0:0:1 - - [09/May/2015:18:20:12 +0900] "GET /celab/images/Penguins1.jpg HTTP/1.1" 304 -
0:0:0:0:0:0:0:1 - - [09/May/2015:18:20:12 +0900] "GET /celab/images/Jellyfish1.jpg HTTP/1.1" 304 -
0:0:0:0:0:0:0:1 - - [09/May/2015:18:20:15 +0900] "GET /celab/applyVolunteer.do?volunteerNum=2 HTTP/1.1" 200 8
0:0:0:0:0:0:0:1 - - [09/May/2015:18:24:56 +0900] "GET /celab/prepareDetailView.do?no=2&listno=1 HTTP/1.1" 200 17188
192.168.0.23 - - [09/May/2015:18:24:56 +0900] "GET /celab/images/mlogo.png HTTP/1.1" 304 -
0:0:0:0:0:0:0:1 - - [09/May/2015:18:24:56 +0900] "GET /celab/css/allcss.css HTTP/1.1" 304 -
0:0:0:0:0:0:0:1 - - [09/May/2015:18:24:56 +0900] "GET /celab/images/Jellyfish1.jpg HTTP/1.1" 304 -
0:0:0:0:0:0:0:1 - - [09/May/2015:18:24:58 +0900] "POST /celab/idPassCheck.do HTTP/1.1" 200 7
0:0:0:0:0:0:0:1 - - [09/May/2015:18:24:58 +0900] "POST /celab/login.do HTTP/1.1" 200 10820
0:0:0:0:0:0:0:1 - - [09/May/2015:18:24:58 +0900] "GET /celab/images/Penguins1.jpg HTTP/1.1" 304 -
0:0:0:0:0:0:0:1 - - [09/May/2015:18:25:01 +0900] "GET /celab/AllVolunteer.do?listno=1&chk_menu=1 HTTP/1.1" 200 56784
0:0:0:0:0:0:0:1 - - [09/May/2015:18:25:01 +0900] "GET /celab/images/Desert1.jpg HTTP/1.1" 404 999
0:0:0:0:0:0:0:1 - - [09/May/2015:18:25:03 +0900] "GET /celab/prepareDetailView.do?no=2&listno=1 HTTP/1.1" 200 17670
0:0:0:0:0:0:0:1 - - [09/May/2015:18:25:06 +0900] "GET /celab/applyVolunteer.do?volunteerNum=2 HTTP/1.1" 200 8
0:0:0:0:0:0:0:1 - - [09/May/2015:18:25:48 +0900] "GET /celab/main.do HTTP/1.1" 200 10813
0:0:0:0:0:0:0:1 - - [09/May/2015:18:25:49 +0900] "GET /celab/main.do HTTP/1.1" 200 10813
0:0:0:0:0:0:0:1 - - [09/May/2015:18:25:51 +0900] "GET /celab/logout.do HTTP/1.1" 200 10335
0:0:0:0:0:0:0:1 - - [09/May/2015:18:25:58 +0900] "POST /celab/idPassCheck.do HTTP/1.1" 200 7
0:0:0:0:0:0:0:1 - - [09/May/2015:18:25:58 +0900] "POST /celab/login.do HTTP/1.1" 200 10683
0:0:0:0:0:0:0:1 - - [09/May/2015:18:25:58 +0900] "GET /celab/images/Hydrangeas1.jpg HTTP/1.1" 304 -
0:0:0:0:0:0:0:1 - - [09/May/2015:18:26:01 +0900] "GET /celab/AllVolunteer.do?listno=1&chk_menu=1 HTTP/1.1" 200 56647
0:0:0:0:0:0:0:1 - - [09/May/2015:18:26:01 +0900] "GET /celab/images/Desert1.jpg HTTP/1.1" 404 999
0:0:0:0:0:0:0:1 - - [09/May/2015:18:26:01 +0900] "GET /celab/images/Jellyfish1.jpg HTTP/1.1" 304 -
0:0:0:0:0:0:0:1 - - [09/May/2015:18:26:02 +0900] "GET /celab/prepareDetailView.do?no=2&listno=1 HTTP/1.1" 200 17533
0:0:0:0:0:0:0:1 - - [09/May/2015:18:26:13 +0900] "GET /celab/logout.do HTTP/1.1" 200 10335
0:0:0:0:0:0:0:1 - - [09/May/2015:18:26:20 +0900] "POST /celab/idPassCheck.do HTTP/1.1" 200 7
0:0:0:0:0:0:0:1 - - [09/May/2015:18:26:20 +0900] "POST /celab/login.do HTTP/1.1" 200 11234
0:0:0:0:0:0:0:1 - - [09/May/2015:18:26:20 +0900] "GET /celab/images/Koala1.jpg HTTP/1.1" 404 997
0:0:0:0:0:0:0:1 - - [09/May/2015:18:26:21 +0900] "GET /celab/images/Koala1.jpg HTTP/1.1" 404 997
0:0:0:0:0:0:0:1 - - [09/May/2015:18:26:24 +0900] "GET /celab/AllVolunteer.do?listno=1&chk_menu=1 HTTP/1.1" 200 57198
0:0:0:0:0:0:0:1 - - [09/May/2015:18:26:24 +0900] "GET /celab/images/Koala1.jpg HTTP/1.1" 404 997
0:0:0:0:0:0:0:1 - - [09/May/2015:18:26:24 +0900] "GET /celab/images/Desert1.jpg HTTP/1.1" 404 999
0:0:0:0:0:0:0:1 - - [09/May/2015:18:26:24 +0900] "GET /celab/images/Koala1.jpg HTTP/1.1" 404 997
0:0:0:0:0:0:0:1 - - [09/May/2015:18:26:26 +0900] "GET /celab/prepareDetailView.do?no=2&listno=1 HTTP/1.1" 200 18084
0:0:0:0:0:0:0:1 - - [09/May/2015:18:26:26 +0900] "GET /celab/images/Koala1.jpg HTTP/1.1" 404 997
0:0:0:0:0:0:0:1 - - [09/May/2015:18:26:26 +0900] "GET /celab/images/Koala1.jpg HTTP/1.1" 404 997
0:0:0:0:0:0:0:1 - - [09/May/2015:18:26:27 +0900] "GET /celab/applyVolunteer.do?volunteerNum=2 HTTP/1.1" 200 8
0:0:0:0:0:0:0:1 - - [09/May/2015:18:26:36 +0900] "GET /celab/main.do HTTP/1.1" 200 11227
0:0:0:0:0:0:0:1 - - [09/May/2015:18:26:36 +0900] "GET /celab/images/Koala1.jpg HTTP/1.1" 404 997
0:0:0:0:0:0:0:1 - - [09/May/2015:18:26:36 +0900] "GET /celab/images/Koala1.jpg HTTP/1.1" 404 997
0:0:0:0:0:0:0:1 - - [09/May/2015:18:26:37 +0900] "GET /celab/main.do HTTP/1.1" 200 11227
0:0:0:0:0:0:0:1 - - [09/May/2015:18:26:37 +0900] "GET /celab/images/Koala1.jpg HTTP/1.1" 404 997
0:0:0:0:0:0:0:1 - - [09/May/2015:18:26:37 +0900] "GET /celab/images/Koala1.jpg HTTP/1.1" 404 997
0:0:0:0:0:0:0:1 - - [09/May/2015:18:26:42 +0900] "GET /celab/Manage/headerVolunteerManage.jsp HTTP/1.1" 200 3105
0:0:0:0:0:0:0:1 - - [09/May/2015:18:26:44 +0900] "POST /celab/PrepareVolunteerManage.do HTTP/1.1" 200 1212
0:0:0:0:0:0:0:1 - - [09/May/2015:18:27:33 +0900] "POST /celab/PrepareVolunteerManage.do HTTP/1.1" 200 1212
0:0:0:0:0:0:0:1 - - [09/May/2015:18:27:35 +0900] "GET /celab/prepareAttendance.do?date=2015-05-15&no=1 HTTP/1.1" 200 11912
0:0:0:0:0:0:0:1 - - [09/May/2015:18:27:43 +0900] "GET /celab/logout.do HTTP/1.1" 200 10335
0:0:0:0:0:0:0:1 - - [09/May/2015:18:27:50 +0900] "POST /celab/idPassCheck.do HTTP/1.1" 200 7
0:0:0:0:0:0:0:1 - - [09/May/2015:18:27:50 +0900] "POST /celab/login.do HTTP/1.1" 200 10683
0:0:0:0:0:0:0:1 - - [09/May/2015:18:27:50 +0900] "GET /celab/images/Hydrangeas1.jpg HTTP/1.1" 304 -
0:0:0:0:0:0:0:1 - - [09/May/2015:18:27:53 +0900] "GET /celab/Manage/headerVolunteerManage.jsp HTTP/1.1" 200 3105
0:0:0:0:0:0:0:1 - - [09/May/2015:18:27:56 +0900] "POST /celab/PrepareVolunteerManage.do HTTP/1.1" 200 1992
0:0:0:0:0:0:0:1 - - [09/May/2015:18:28:00 +0900] "GET /celab/prepareAttendance.do?date=2015-04-16&no=2 HTTP/1.1" 200 12797
192.168.0.23 - - [09/May/2015:18:28:00 +0900] "GET /celab/images/%EC%99%BC%EC%AA%BD%ED%99%94%EC%82%B4%ED%91%9C.png HTTP/1.1" 304 -
192.168.0.23 - - [09/May/2015:18:28:00 +0900] "GET /celab/images/%EC%98%A4%EB%A5%B8%EC%AA%BD%ED%99%94%EC%82%B4%ED%91%9C.png HTTP/1.1" 304 -
0:0:0:0:0:0:0:1 - - [09/May/2015:18:28:05 +0900] "GET /celab/forwardAttendance.do?date=2015-04-16&no=2 HTTP/1.1" 200 12797
0:0:0:0:0:0:0:1 - - [09/May/2015:18:28:06 +0900] "GET /celab/forwardAttendance.do?date=2015-04-17&no=2 HTTP/1.1" 200 12797
0:0:0:0:0:0:0:1 - - [09/May/2015:18:28:08 +0900] "GET /celab/forwardAttendance.do?date=2015-04-18&no=2 HTTP/1.1" 200 12797
0:0:0:0:0:0:0:1 - - [09/May/2015:18:28:14 +0900] "GET /celab/forwardAttendance.do?date=2015-04-19&no=2 HTTP/1.1" 200 12797
0:0:0:0:0:0:0:1 - - [09/May/2015:18:28:18 +0900] "GET /celab/backwardAttendance.do?date=2015-04-20&no=2 HTTP/1.1" 200 12797
0:0:0:0:0:0:0:1 - - [09/May/2015:18:28:19 +0900] "GET /celab/backwardAttendance.do?date=2015-04-19&no=2 HTTP/1.1" 200 12797
0:0:0:0:0:0:0:1 - - [09/May/2015:18:28:20 +0900] "GET /celab/backwardAttendance.do?date=2015-04-18&no=2 HTTP/1.1" 200 12797
0:0:0:0:0:0:0:1 - - [09/May/2015:18:28:21 +0900] "GET /celab/backwardAttendance.do?date=2015-04-17&no=2 HTTP/1.1" 200 12797
0:0:0:0:0:0:0:1 - - [09/May/2015:18:28:22 +0900] "GET /celab/backwardAttendance.do?date=2015-04-16&no=2 HTTP/1.1" 200 11912
0:0:0:0:0:0:0:1 - - [09/May/2015:18:28:31 +0900] "GET /celab/searchAttendance.do?date=2015-04-16&no=2 HTTP/1.1" 200 12797
0:0:0:0:0:0:0:1 - - [09/May/2015:18:28:42 +0900] "POST /celab/RegistAttendance.do HTTP/1.1" 500 14474
0:0:0:0:0:0:0:1 - - [09/May/2015:18:28:42 +0900] "POST /celab/RegistAttendance.do HTTP/1.1" 500 14474
0:0:0:0:0:0:0:1 - - [09/May/2015:18:28:55 +0900] "GET /celab/prepareStatusAttendance.do?&no=2 HTTP/1.1" 200 2520
0:0:0:0:0:0:0:1 - - [09/May/2015:18:29:06 +0900] "GET /celab/forwardAttendance.do?date=2015-04-16&no=2 HTTP/1.1" 200 12797
0:0:0:0:0:0:0:1 - - [09/May/2015:18:29:09 +0900] "POST /celab/RegistAttendance.do HTTP/1.1" 500 14474
0:0:0:0:0:0:0:1 - - [09/May/2015:18:29:09 +0900] "POST /celab/RegistAttendance.do HTTP/1.1" 500 14474
0:0:0:0:0:0:0:1 - - [09/May/2015:18:29:12 +0900] "GET /celab/prepareStatusAttendance.do?&no=2 HTTP/1.1" 200 2520
0:0:0:0:0:0:0:1 - - [09/May/2015:18:29:26 +0900] "GET /celab/Manage/headerVolunteerManage.jsp HTTP/1.1" 200 3105
0:0:0:0:0:0:0:1 - - [09/May/2015:18:29:32 +0900] "POST /celab/PrepareVolunteerManage.do HTTP/1.1" 200 1992
0:0:0:0:0:0:0:1 - - [09/May/2015:18:29:33 +0900] "GET /celab/prepareAttendance.do?date=2015-04-16&no=2 HTTP/1.1" 200 12797
0:0:0:0:0:0:0:1 - - [09/May/2015:18:29:40 +0900] "POST /celab/PrepareVolunteerManage.do HTTP/1.1" 200 1992
0:0:0:0:0:0:0:1 - - [09/May/2015:18:30:04 +0900] "POST /celab/PrepareVolunteerManage.do HTTP/1.1" 200 1992
0:0:0:0:0:0:0:1 - - [09/May/2015:18:30:16 +0900] "GET /celab/prepareAttendance.do?date=2015-04-16&no=2 HTTP/1.1" 200 12797
0:0:0:0:0:0:0:1 - - [09/May/2015:18:30:45 +0900] "GET /celab/AllVolunteer.do?listno=1&chk_menu=1 HTTP/1.1" 200 56647
0:0:0:0:0:0:0:1 - - [09/May/2015:18:30:46 +0900] "GET /celab/images/Hydrangeas1.jpg HTTP/1.1" 304 -
0:0:0:0:0:0:0:1 - - [09/May/2015:18:30:46 +0900] "GET /celab/images/Jellyfish1.jpg HTTP/1.1" 304 -
0:0:0:0:0:0:0:1 - - [09/May/2015:18:30:46 +0900] "GET /celab/images/Desert1.jpg HTTP/1.1" 404 999
0:0:0:0:0:0:0:1 - - [09/May/2015:18:31:27 +0900] "POST /celab/PrepareVolunteerManage.do HTTP/1.1" 200 1992
0:0:0:0:0:0:0:1 - - [09/May/2015:18:31:36 +0900] "POST /celab/PrepareVolunteerManage.do HTTP/1.1" 200 1992
0:0:0:0:0:0:0:1 - - [09/May/2015:18:31:42 +0900] "POST /celab/PrepareVolunteerManage.do HTTP/1.1" 200 1992
0:0:0:0:0:0:0:1 - - [09/May/2015:18:31:53 +0900] "POST /celab/PrepareVolunteerManage.do HTTP/1.1" 200 1992
0:0:0:0:0:0:0:1 - - [09/May/2015:18:32:55 +0900] "POST /celab/RegistAttendance.do HTTP/1.1" 500 14474
0:0:0:0:0:0:0:1 - - [09/May/2015:18:32:55 +0900] "POST /celab/RegistAttendance.do HTTP/1.1" 500 14474
0:0:0:0:0:0:0:1 - - [09/May/2015:18:36:43 +0900] "GET /celab/prepareAttendance.do?date=2015-04-16&no=2 HTTP/1.1" 200 12797
0:0:0:0:0:0:0:1 - - [09/May/2015:18:36:44 +0900] "GET /celab/css/allcss.css HTTP/1.1" 304 -
192.168.0.23 - - [09/May/2015:18:36:44 +0900] "GET /celab/images/%EC%99%BC%EC%AA%BD%ED%99%94%EC%82%B4%ED%91%9C.png HTTP/1.1" 304 -
192.168.0.23 - - [09/May/2015:18:36:44 +0900] "GET /celab/images/%EC%98%A4%EB%A5%B8%EC%AA%BD%ED%99%94%EC%82%B4%ED%91%9C.png HTTP/1.1" 304 -
0:0:0:0:0:0:0:1 - - [09/May/2015:18:36:47 +0900] "POST /celab/RegistAttendance.do HTTP/1.1" 500 14474
0:0:0:0:0:0:0:1 - - [09/May/2015:18:36:47 +0900] "POST /celab/RegistAttendance.do HTTP/1.1" 500 14474
0:0:0:0:0:0:0:1 - - [09/May/2015:18:47:50 +0900] "GET /celab/prepareAttendance.do?date=2015-04-16&no=2 HTTP/1.1" 200 12797
0:0:0:0:0:0:0:1 - - [09/May/2015:18:47:50 +0900] "GET /celab/css/allcss.css HTTP/1.1" 304 -
192.168.0.23 - - [09/May/2015:18:47:50 +0900] "GET /celab/images/%EC%99%BC%EC%AA%BD%ED%99%94%EC%82%B4%ED%91%9C.png HTTP/1.1" 304 -
192.168.0.23 - - [09/May/2015:18:47:50 +0900] "GET /celab/images/%EC%98%A4%EB%A5%B8%EC%AA%BD%ED%99%94%EC%82%B4%ED%91%9C.png HTTP/1.1" 304 -
0:0:0:0:0:0:0:1 - - [09/May/2015:18:47:54 +0900] "POST /celab/RegistAttendance.do HTTP/1.1" 200 10
0:0:0:0:0:0:0:1 - - [09/May/2015:18:47:54 +0900] "POST /celab/RegistAttendance.do HTTP/1.1" 200 10
0:0:0:0:0:0:0:1 - - [09/May/2015:18:47:56 +0900] "GET /celab/forwardAttendance.do?date=2015-04-16&no=2 HTTP/1.1" 200 12797
0:0:0:0:0:0:0:1 - - [09/May/2015:18:47:57 +0900] "GET /celab/prepareStatusAttendance.do?&no=2 HTTP/1.1" 200 3192
0:0:0:0:0:0:0:1 - - [09/May/2015:18:48:36 +0900] "POST /celab/RegistAttendance.do HTTP/1.1" 200 10
0:0:0:0:0:0:0:1 - - [09/May/2015:18:48:36 +0900] "POST /celab/RegistAttendance.do HTTP/1.1" 200 10
0:0:0:0:0:0:0:1 - - [09/May/2015:18:48:37 +0900] "GET /celab/forwardAttendance.do?date=2015-04-17&no=2 HTTP/1.1" 200 12797
0:0:0:0:0:0:0:1 - - [09/May/2015:18:48:39 +0900] "GET /celab/prepareStatusAttendance.do?&no=2 HTTP/1.1" 200 3864
0:0:0:0:0:0:0:1 - - [09/May/2015:18:48:58 +0900] "POST /celab/RegistAttendance.do HTTP/1.1" 200 10
0:0:0:0:0:0:0:1 - - [09/May/2015:18:48:58 +0900] "POST /celab/RegistAttendance.do HTTP/1.1" 200 10
0:0:0:0:0:0:0:1 - - [09/May/2015:18:48:59 +0900] "GET /celab/forwardAttendance.do?date=2015-04-18&no=2 HTTP/1.1" 200 12797
0:0:0:0:0:0:0:1 - - [09/May/2015:18:49:01 +0900] "GET /celab/prepareStatusAttendance.do?&no=2 HTTP/1.1" 200 4536
0:0:0:0:0:0:0:1 - - [09/May/2015:18:49:17 +0900] "GET /celab/AllVolunteer.do?listno=1&chk_menu=1 HTTP/1.1" 200 56303
0:0:0:0:0:0:0:1 - - [09/May/2015:18:49:17 +0900] "GET /celab/css/allcss.css HTTP/1.1" 304 -
192.168.0.23 - - [09/May/2015:18:49:17 +0900] "GET /celab/images/mlogo.png HTTP/1.1" 304 -
0:0:0:0:0:0:0:1 - - [09/May/2015:18:49:17 +0900] "GET /celab/images/Jellyfish1.jpg HTTP/1.1" 304 -
0:0:0:0:0:0:0:1 - - [09/May/2015:18:49:17 +0900] "GET /celab/images/Desert1.jpg HTTP/1.1" 404 999
0:0:0:0:0:0:0:1 - - [09/May/2015:18:49:17 +0900] "GET /celab/images/Desert1.jpg HTTP/1.1" 404 999
192.168.0.23 - - [09/May/2015:18:49:17 +0900] "GET /celab/images/Search.png HTTP/1.1" 304 -
0:0:0:0:0:0:0:1 - - [09/May/2015:18:49:18 +0900] "POST /celab/idPassCheck.do HTTP/1.1" 200 7
0:0:0:0:0:0:0:1 - - [09/May/2015:18:49:18 +0900] "POST /celab/login.do HTTP/1.1" 200 10820
0:0:0:0:0:0:0:1 - - [09/May/2015:18:49:18 +0900] "GET /celab/images/Penguins1.jpg HTTP/1.1" 304 -
0:0:0:0:0:0:0:1 - - [09/May/2015:18:49:20 +0900] "GET /celab/logout.do HTTP/1.1" 200 10335
0:0:0:0:0:0:0:1 - - [09/May/2015:18:49:24 +0900] "POST /celab/idPassCheck.do HTTP/1.1" 200 4
0:0:0:0:0:0:0:1 - - [09/May/2015:18:49:31 +0900] "POST /celab/idPassCheck.do HTTP/1.1" 200 7
0:0:0:0:0:0:0:1 - - [09/May/2015:18:49:31 +0900] "POST /celab/login.do HTTP/1.1" 200 10683
0:0:0:0:0:0:0:1 - - [09/May/2015:18:49:31 +0900] "GET /celab/images/Hydrangeas1.jpg HTTP/1.1" 304 -
0:0:0:0:0:0:0:1 - - [09/May/2015:18:49:34 +0900] "GET /celab/Manage/headerVolunteerManage.jsp HTTP/1.1" 200 3105
0:0:0:0:0:0:0:1 - - [09/May/2015:18:49:51 +0900] "POST /celab/PrepareVolunteerManage.do HTTP/1.1" 200 1992
0:0:0:0:0:0:0:1 - - [09/May/2015:18:50:56 +0900] "GET /celab/prepareAttendance.do?date=2015-04-16&no=2 HTTP/1.1" 200 12797
0:0:0:0:0:0:0:1 - - [09/May/2015:18:51:03 +0900] "GET /celab/forwardAttendance.do?date=2015-04-19&no=2 HTTP/1.1" 200 12797
0:0:0:0:0:0:0:1 - - [09/May/2015:18:51:04 +0900] "GET /celab/forwardAttendance.do?date=2015-04-20&no=2 HTTP/1.1" 200 12797
0:0:0:0:0:0:0:1 - - [09/May/2015:18:51:06 +0900] "GET /celab/forwardAttendance.do?date=2015-04-21&no=2 HTTP/1.1" 200 12797
0:0:0:0:0:0:0:1 - - [09/May/2015:18:51:07 +0900] "GET /celab/backwardAttendance.do?date=2015-04-22&no=2 HTTP/1.1" 200 12797
0:0:0:0:0:0:0:1 - - [09/May/2015:18:51:07 +0900] "GET /celab/backwardAttendance.do?date=2015-04-21&no=2 HTTP/1.1" 200 12797
0:0:0:0:0:0:0:1 - - [09/May/2015:18:51:08 +0900] "GET /celab/backwardAttendance.do?date=2015-04-20&no=2 HTTP/1.1" 200 12797
0:0:0:0:0:0:0:1 - - [09/May/2015:18:51:09 +0900] "GET /celab/backwardAttendance.do?date=2015-04-19&no=2 HTTP/1.1" 200 11912
0:0:0:0:0:0:0:1 - - [09/May/2015:18:51:13 +0900] "POST /celab/PrepareVolunteerManage.do HTTP/1.1" 200 1992
0:0:0:0:0:0:0:1 - - [09/May/2015:18:51:14 +0900] "GET /celab/prepareAttendance.do?date=2015-04-16&no=2 HTTP/1.1" 200 12797
127.0.0.1 - - [09/May/2015:19:04:02 +0900] "GET / HTTP/1.1" 404 951
0:0:0:0:0:0:0:1 - - [09/May/2015:19:04:03 +0900] "GET /celab/Manage/headerVolunteerManage.jsp HTTP/1.1" 200 3871
127.0.0.1 - - [09/May/2015:19:07:15 +0900] "GET / HTTP/1.1" 404 951
0:0:0:0:0:0:0:1 - - [09/May/2015:19:07:17 +0900] "GET /celab/Manage/headerVolunteerManage.jsp HTTP/1.1" 200 3529
0:0:0:0:0:0:0:1 - - [09/May/2015:19:07:17 +0900] "GET /favicon.ico HTTP/1.1" 404 973
0:0:0:0:0:0:0:1 - - [09/May/2015:19:09:18 +0900] "GET /celab/Manage/headerVolunteerManage.jsp HTTP/1.1" 200 5063
0:0:0:0:0:0:0:1 - - [09/May/2015:19:09:18 +0900] "GET /celab/css/allcss.css HTTP/1.1" 304 -
0:0:0:0:0:0:0:1 - - [09/May/2015:19:09:20 +0900] "GET /celab/Manage/headerVolunteerManage.jsp HTTP/1.1" 200 5063
0:0:0:0:0:0:0:1 - - [09/May/2015:19:09:20 +0900] "GET /celab/css/allcss.css HTTP/1.1" 304 -
0:0:0:0:0:0:0:1 - - [09/May/2015:19:09:21 +0900] "GET /celab/Manage/headerVolunteerManage.jsp HTTP/1.1" 200 5063
0:0:0:0:0:0:0:1 - - [09/May/2015:19:09:21 +0900] "GET /celab/css/allcss.css HTTP/1.1" 304 -
0:0:0:0:0:0:0:1 - - [09/May/2015:19:09:22 +0900] "GET /celab/Manage/headerVolunteerManage.jsp HTTP/1.1" 200 5063
0:0:0:0:0:0:0:1 - - [09/May/2015:19:09:22 +0900] "GET /celab/css/allcss.css HTTP/1.1" 304 -
0:0:0:0:0:0:0:1 - - [09/May/2015:19:11:18 +0900] "GET /celab/Manage/headerVolunteerManage.jsp HTTP/1.1" 200 6730
0:0:0:0:0:0:0:1 - - [09/May/2015:19:11:18 +0900] "GET /celab/css/allcss.css HTTP/1.1" 304 -
0:0:0:0:0:0:0:1 - - [09/May/2015:19:11:18 +0900] "GET /celab/images/Hydrangeas.jpg HTTP/1.1" 304 -
0:0:0:0:0:0:0:1 - - [09/May/2015:19:11:18 +0900] "GET /celab/images/Desert.jpg HTTP/1.1" 304 -
0:0:0:0:0:0:0:1 - - [09/May/2015:19:11:18 +0900] "GET /celab/images/Chrysanthemum.jpg HTTP/1.1" 304 -
0:0:0:0:0:0:0:1 - - [09/May/2015:19:12:21 +0900] "GET /celab/main.do HTTP/1.1" 200 10335
0:0:0:0:0:0:0:1 - - [09/May/2015:19:12:29 +0900] "GET /celab/MainMoebius.do HTTP/1.1" 200 15290
0:0:0:0:0:0:0:1 - - [09/May/2015:19:12:29 +0900] "GET /celab/images/Jellyfish1.jpg HTTP/1.1" 304 -
0:0:0:0:0:0:0:1 - - [09/May/2015:19:12:52 +0900] "GET /celab/prepareDetailView.do?no=2&listno=1 HTTP/1.1" 200 17188
0:0:0:0:0:0:0:1 - - [09/May/2015:19:15:23 +0900] "GET /celab/Manage/headerVolunteerManage.jsp HTTP/1.1" 200 6741
0:0:0:0:0:0:0:1 - - [09/May/2015:19:15:23 +0900] "GET /celab/css/allcss.css HTTP/1.1" 304 -
0:0:0:0:0:0:0:1 - - [09/May/2015:19:15:23 +0900] "GET /celab/images/Hydrangeas.jpg HTTP/1.1" 304 -
0:0:0:0:0:0:0:1 - - [09/May/2015:19:15:23 +0900] "GET /celab/images/Desert.jpg HTTP/1.1" 304 -
0:0:0:0:0:0:0:1 - - [09/May/2015:19:15:23 +0900] "GET /celab/images/Chrysanthemum.jpg HTTP/1.1" 304 -
0:0:0:0:0:0:0:1 - - [09/May/2015:19:15:25 +0900] "GET /celab/Manage/headerVolunteerManage.jsp HTTP/1.1" 200 6741
0:0:0:0:0:0:0:1 - - [09/May/2015:19:15:25 +0900] "GET /celab/css/allcss.css HTTP/1.1" 304 -
0:0:0:0:0:0:0:1 - - [09/May/2015:19:15:25 +0900] "GET /celab/images/Hydrangeas.jpg HTTP/1.1" 304 -
0:0:0:0:0:0:0:1 - - [09/May/2015:19:15:25 +0900] "GET /celab/images/Desert.jpg HTTP/1.1" 304 -
0:0:0:0:0:0:0:1 - - [09/May/2015:19:15:25 +0900] "GET /celab/images/Chrysanthemum.jpg HTTP/1.1" 304 -
0:0:0:0:0:0:0:1 - - [09/May/2015:19:15:26 +0900] "GET /celab/Manage/headerVolunteerManage.jsp HTTP/1.1" 200 6741
0:0:0:0:0:0:0:1 - - [09/May/2015:19:15:26 +0900] "GET /celab/css/allcss.css HTTP/1.1" 304 -
0:0:0:0:0:0:0:1 - - [09/May/2015:19:15:26 +0900] "GET /celab/images/Hydrangeas.jpg HTTP/1.1" 304 -
0:0:0:0:0:0:0:1 - - [09/May/2015:19:15:26 +0900] "GET /celab/images/Desert.jpg HTTP/1.1" 304 -
0:0:0:0:0:0:0:1 - - [09/May/2015:19:15:26 +0900] "GET /celab/images/Chrysanthemum.jpg HTTP/1.1" 304 -
0:0:0:0:0:0:0:1 - - [09/May/2015:19:15:27 +0900] "GET /celab/Manage/headerVolunteerManage.jsp HTTP/1.1" 200 6741
0:0:0:0:0:0:0:1 - - [09/May/2015:19:15:27 +0900] "GET /celab/css/allcss.css HTTP/1.1" 304 -
0:0:0:0:0:0:0:1 - - [09/May/2015:19:15:27 +0900] "GET /celab/images/Hydrangeas.jpg HTTP/1.1" 304 -
0:0:0:0:0:0:0:1 - - [09/May/2015:19:15:27 +0900] "GET /celab/images/Desert.jpg HTTP/1.1" 304 -
0:0:0:0:0:0:0:1 - - [09/May/2015:19:15:27 +0900] "GET /celab/images/Chrysanthemum.jpg HTTP/1.1" 304 -
0:0:0:0:0:0:0:1 - - [09/May/2015:19:15:50 +0900] "GET /celab/Manage/headerVolunteerManage.jsp HTTP/1.1" 200 6741
0:0:0:0:0:0:0:1 - - [09/May/2015:19:15:50 +0900] "GET /celab/css/allcss.css HTTP/1.1" 304 -
0:0:0:0:0:0:0:1 - - [09/May/2015:19:15:50 +0900] "GET /celab/images/Hydrangeas.jpg HTTP/1.1" 304 -
0:0:0:0:0:0:0:1 - - [09/May/2015:19:15:50 +0900] "GET /celab/images/Desert.jpg HTTP/1.1" 304 -
0:0:0:0:0:0:0:1 - - [09/May/2015:19:15:50 +0900] "GET /celab/images/Chrysanthemum.jpg HTTP/1.1" 304 -
0:0:0:0:0:0:0:1 - - [09/May/2015:19:16:28 +0900] "GET /celab/Manage/headerVolunteerManage.jsp HTTP/1.1" 200 6761
0:0:0:0:0:0:0:1 - - [09/May/2015:19:16:28 +0900] "GET /celab/css/allcss.css HTTP/1.1" 304 -
0:0:0:0:0:0:0:1 - - [09/May/2015:19:16:28 +0900] "GET /celab/images/Hydrangeas.jpg HTTP/1.1" 304 -
0:0:0:0:0:0:0:1 - - [09/May/2015:19:16:28 +0900] "GET /celab/images/Desert.jpg HTTP/1.1" 304 -
0:0:0:0:0:0:0:1 - - [09/May/2015:19:16:28 +0900] "GET /celab/images/Chrysanthemum.jpg HTTP/1.1" 304 -
0:0:0:0:0:0:0:1 - - [09/May/2015:19:16:53 +0900] "GET /celab/Manage/headerVolunteerManage.jsp HTTP/1.1" 200 6762
0:0:0:0:0:0:0:1 - - [09/May/2015:19:16:53 +0900] "GET /celab/css/allcss.css HTTP/1.1" 304 -
0:0:0:0:0:0:0:1 - - [09/May/2015:19:16:53 +0900] "GET /celab/images/Hydrangeas.jpg HTTP/1.1" 304 -
0:0:0:0:0:0:0:1 - - [09/May/2015:19:16:53 +0900] "GET /celab/images/Desert.jpg HTTP/1.1" 304 -
0:0:0:0:0:0:0:1 - - [09/May/2015:19:16:53 +0900] "GET /celab/images/Chrysanthemum.jpg HTTP/1.1" 304 -
0:0:0:0:0:0:0:1 - - [09/May/2015:19:17:08 +0900] "GET /celab/Manage/headerVolunteerManage.jsp HTTP/1.1" 200 6742
0:0:0:0:0:0:0:1 - - [09/May/2015:19:17:08 +0900] "GET /celab/css/allcss.css HTTP/1.1" 304 -
0:0:0:0:0:0:0:1 - - [09/May/2015:19:17:08 +0900] "GET /celab/images/Hydrangeas.jpg HTTP/1.1" 304 -
0:0:0:0:0:0:0:1 - - [09/May/2015:19:17:08 +0900] "GET /celab/images/Desert.jpg HTTP/1.1" 304 -
0:0:0:0:0:0:0:1 - - [09/May/2015:19:17:08 +0900] "GET /celab/images/Chrysanthemum.jpg HTTP/1.1" 304 -
0:0:0:0:0:0:0:1 - - [09/May/2015:19:17:57 +0900] "GET /celab/Manage/headerVolunteerManage.jsp HTTP/1.1" 200 6718
0:0:0:0:0:0:0:1 - - [09/May/2015:19:17:57 +0900] "GET /celab/css/allcss.css HTTP/1.1" 304 -
0:0:0:0:0:0:0:1 - - [09/May/2015:19:17:57 +0900] "GET /celab/images/Hydrangeas.jpg HTTP/1.1" 304 -
0:0:0:0:0:0:0:1 - - [09/May/2015:19:17:57 +0900] "GET /celab/images/Desert.jpg HTTP/1.1" 304 -
0:0:0:0:0:0:0:1 - - [09/May/2015:19:17:57 +0900] "GET /celab/images/Chrysanthemum.jpg HTTP/1.1" 304 -
0:0:0:0:0:0:0:1 - - [09/May/2015:19:18:00 +0900] "GET /celab/Manage/headerVolunteerManage.jsp HTTP/1.1" 200 6718
0:0:0:0:0:0:0:1 - - [09/May/2015:19:18:00 +0900] "GET /celab/css/allcss.css HTTP/1.1" 304 -
0:0:0:0:0:0:0:1 - - [09/May/2015:19:18:00 +0900] "GET /celab/images/Hydrangeas.jpg HTTP/1.1" 304 -
0:0:0:0:0:0:0:1 - - [09/May/2015:19:18:00 +0900] "GET /celab/images/Desert.jpg HTTP/1.1" 304 -
0:0:0:0:0:0:0:1 - - [09/May/2015:19:18:00 +0900] "GET /celab/images/Chrysanthemum.jpg HTTP/1.1" 304 -
0:0:0:0:0:0:0:1 - - [09/May/2015:19:18:01 +0900] "GET /celab/Manage/headerVolunteerManage.jsp HTTP/1.1" 200 6718
0:0:0:0:0:0:0:1 - - [09/May/2015:19:18:01 +0900] "GET /celab/css/allcss.css HTTP/1.1" 304 -
0:0:0:0:0:0:0:1 - - [09/May/2015:19:18:01 +0900] "GET /celab/images/Hydrangeas.jpg HTTP/1.1" 304 -
0:0:0:0:0:0:0:1 - - [09/May/2015:19:18:01 +0900] "GET /celab/images/Desert.jpg HTTP/1.1" 304 -
0:0:0:0:0:0:0:1 - - [09/May/2015:19:18:01 +0900] "GET /celab/images/Chrysanthemum.jpg HTTP/1.1" 304 -
0:0:0:0:0:0:0:1 - - [09/May/2015:19:18:02 +0900] "GET /celab/Manage/headerVolunteerManage.jsp HTTP/1.1" 200 6718
0:0:0:0:0:0:0:1 - - [09/May/2015:19:18:02 +0900] "GET /celab/css/allcss.css HTTP/1.1" 304 -
0:0:0:0:0:0:0:1 - - [09/May/2015:19:18:02 +0900] "GET /celab/images/Hydrangeas.jpg HTTP/1.1" 304 -
0:0:0:0:0:0:0:1 - - [09/May/2015:19:18:02 +0900] "GET /celab/images/Desert.jpg HTTP/1.1" 304 -
0:0:0:0:0:0:0:1 - - [09/May/2015:19:18:02 +0900] "GET /celab/images/Chrysanthemum.jpg HTTP/1.1" 304 -
0:0:0:0:0:0:0:1 - - [09/May/2015:19:18:03 +0900] "GET /celab/Manage/headerVolunteerManage.jsp HTTP/1.1" 200 6718
0:0:0:0:0:0:0:1 - - [09/May/2015:19:18:03 +0900] "GET /celab/css/allcss.css HTTP/1.1" 304 -
0:0:0:0:0:0:0:1 - - [09/May/2015:19:18:03 +0900] "GET /celab/images/Hydrangeas.jpg HTTP/1.1" 304 -
0:0:0:0:0:0:0:1 - - [09/May/2015:19:18:03 +0900] "GET /celab/images/Desert.jpg HTTP/1.1" 304 -
0:0:0:0:0:0:0:1 - - [09/May/2015:19:18:03 +0900] "GET /celab/images/Chrysanthemum.jpg HTTP/1.1" 304 -
0:0:0:0:0:0:0:1 - - [09/May/2015:19:18:03 +0900] "GET /celab/Manage/headerVolunteerManage.jsp HTTP/1.1" 200 6718
0:0:0:0:0:0:0:1 - - [09/May/2015:19:18:03 +0900] "GET /celab/css/allcss.css HTTP/1.1" 304 -
0:0:0:0:0:0:0:1 - - [09/May/2015:19:18:03 +0900] "GET /celab/images/Hydrangeas.jpg HTTP/1.1" 304 -
0:0:0:0:0:0:0:1 - - [09/May/2015:19:18:03 +0900] "GET /celab/images/Desert.jpg HTTP/1.1" 304 -
0:0:0:0:0:0:0:1 - - [09/May/2015:19:18:03 +0900] "GET /celab/images/Chrysanthemum.jpg HTTP/1.1" 304 -
0:0:0:0:0:0:0:1 - - [09/May/2015:19:18:32 +0900] "GET /celab/Manage/headerVolunteerManage.jsp HTTP/1.1" 200 6718
0:0:0:0:0:0:0:1 - - [09/May/2015:19:18:32 +0900] "GET /celab/images/Hydrangeas.jpg HTTP/1.1" 304 -
0:0:0:0:0:0:0:1 - - [09/May/2015:19:18:32 +0900] "GET /celab/css/allcss.css HTTP/1.1" 304 -
0:0:0:0:0:0:0:1 - - [09/May/2015:19:18:32 +0900] "GET /celab/images/Desert.jpg HTTP/1.1" 304 -
0:0:0:0:0:0:0:1 - - [09/May/2015:19:18:32 +0900] "GET /celab/images/Chrysanthemum.jpg HTTP/1.1" 304 -
0:0:0:0:0:0:0:1 - - [09/May/2015:19:18:34 +0900] "GET /celab/Manage/headerVolunteerManage.jsp HTTP/1.1" 200 6718
0:0:0:0:0:0:0:1 - - [09/May/2015:19:18:34 +0900] "GET /celab/css/allcss.css HTTP/1.1" 304 -
0:0:0:0:0:0:0:1 - - [09/May/2015:19:18:34 +0900] "GET /celab/images/Hydrangeas.jpg HTTP/1.1" 304 -
0:0:0:0:0:0:0:1 - - [09/May/2015:19:18:34 +0900] "GET /celab/images/Desert.jpg HTTP/1.1" 304 -
0:0:0:0:0:0:0:1 - - [09/May/2015:19:18:34 +0900] "GET /celab/images/Chrysanthemum.jpg HTTP/1.1" 304 -
0:0:0:0:0:0:0:1 - - [09/May/2015:19:18:54 +0900] "GET /celab/Manage/headerVolunteerManage.jsp HTTP/1.1" 200 6717
0:0:0:0:0:0:0:1 - - [09/May/2015:19:18:54 +0900] "GET /celab/css/allcss.css HTTP/1.1" 304 -
0:0:0:0:0:0:0:1 - - [09/May/2015:19:18:54 +0900] "GET /celab/images/Hydrangeas.jpg HTTP/1.1" 304 -
0:0:0:0:0:0:0:1 - - [09/May/2015:19:18:54 +0900] "GET /celab/images/Desert.jpg HTTP/1.1" 304 -
0:0:0:0:0:0:0:1 - - [09/May/2015:19:18:54 +0900] "GET /celab/images/Chrysanthemum.jpg HTTP/1.1" 304 -
0:0:0:0:0:0:0:1 - - [09/May/2015:19:18:56 +0900] "GET /celab/Manage/headerVolunteerManage.jsp HTTP/1.1" 200 6717
0:0:0:0:0:0:0:1 - - [09/May/2015:19:18:56 +0900] "GET /celab/css/allcss.css HTTP/1.1" 304 -
0:0:0:0:0:0:0:1 - - [09/May/2015:19:18:56 +0900] "GET /celab/images/Hydrangeas.jpg HTTP/1.1" 304 -
0:0:0:0:0:0:0:1 - - [09/May/2015:19:18:56 +0900] "GET /celab/images/Desert.jpg HTTP/1.1" 304 -
0:0:0:0:0:0:0:1 - - [09/May/2015:19:18:56 +0900] "GET /celab/images/Chrysanthemum.jpg HTTP/1.1" 304 -
0:0:0:0:0:0:0:1 - - [09/May/2015:19:18:57 +0900] "GET /celab/Manage/headerVolunteerManage.jsp HTTP/1.1" 200 6717
0:0:0:0:0:0:0:1 - - [09/May/2015:19:18:57 +0900] "GET /celab/images/Hydrangeas.jpg HTTP/1.1" 304 -
0:0:0:0:0:0:0:1 - - [09/May/2015:19:18:57 +0900] "GET /celab/css/allcss.css HTTP/1.1" 304 -
0:0:0:0:0:0:0:1 - - [09/May/2015:19:18:57 +0900] "GET /celab/images/Desert.jpg HTTP/1.1" 304 -
0:0:0:0:0:0:0:1 - - [09/May/2015:19:18:57 +0900] "GET /celab/images/Chrysanthemum.jpg HTTP/1.1" 304 -
0:0:0:0:0:0:0:1 - - [09/May/2015:19:19:21 +0900] "GET /celab/Manage/headerVolunteerManage.jsp HTTP/1.1" 200 6718
0:0:0:0:0:0:0:1 - - [09/May/2015:19:19:21 +0900] "GET /celab/css/allcss.css HTTP/1.1" 304 -
0:0:0:0:0:0:0:1 - - [09/May/2015:19:19:21 +0900] "GET /celab/images/Hydrangeas.jpg HTTP/1.1" 304 -
0:0:0:0:0:0:0:1 - - [09/May/2015:19:19:21 +0900] "GET /celab/images/Desert.jpg HTTP/1.1" 304 -
0:0:0:0:0:0:0:1 - - [09/May/2015:19:19:21 +0900] "GET /celab/images/Chrysanthemum.jpg HTTP/1.1" 304 -
0:0:0:0:0:0:0:1 - - [09/May/2015:19:19:27 +0900] "GET /celab/Manage/headerVolunteerManage.jsp HTTP/1.1" 200 6718
0:0:0:0:0:0:0:1 - - [09/May/2015:19:19:27 +0900] "GET /celab/css/allcss.css HTTP/1.1" 304 -
0:0:0:0:0:0:0:1 - - [09/May/2015:19:19:27 +0900] "GET /celab/images/Hydrangeas.jpg HTTP/1.1" 304 -
0:0:0:0:0:0:0:1 - - [09/May/2015:19:19:27 +0900] "GET /celab/images/Desert.jpg HTTP/1.1" 304 -
0:0:0:0:0:0:0:1 - - [09/May/2015:19:19:27 +0900] "GET /celab/images/Chrysanthemum.jpg HTTP/1.1" 304 -
0:0:0:0:0:0:0:1 - - [09/May/2015:19:19:29 +0900] "GET /celab/Manage/headerVolunteerManage.jsp HTTP/1.1" 200 6718
0:0:0:0:0:0:0:1 - - [09/May/2015:19:19:29 +0900] "GET /celab/images/Hydrangeas.jpg HTTP/1.1" 304 -
0:0:0:0:0:0:0:1 - - [09/May/2015:19:19:29 +0900] "GET /celab/css/allcss.css HTTP/1.1" 304 -
0:0:0:0:0:0:0:1 - - [09/May/2015:19:19:29 +0900] "GET /celab/images/Desert.jpg HTTP/1.1" 304 -
0:0:0:0:0:0:0:1 - - [09/May/2015:19:19:29 +0900] "GET /celab/images/Chrysanthemum.jpg HTTP/1.1" 304 -
0:0:0:0:0:0:0:1 - - [09/May/2015:19:19:34 +0900] "GET /celab/Manage/headerVolunteerManage.jsp HTTP/1.1" 200 6718
0:0:0:0:0:0:0:1 - - [09/May/2015:19:19:34 +0900] "GET /celab/images/Hydrangeas.jpg HTTP/1.1" 304 -
0:0:0:0:0:0:0:1 - - [09/May/2015:19:19:34 +0900] "GET /celab/css/allcss.css HTTP/1.1" 304 -
0:0:0:0:0:0:0:1 - - [09/May/2015:19:19:34 +0900] "GET /celab/images/Desert.jpg HTTP/1.1" 304 -
0:0:0:0:0:0:0:1 - - [09/May/2015:19:19:34 +0900] "GET /celab/images/Chrysanthemum.jpg HTTP/1.1" 304 -
0:0:0:0:0:0:0:1 - - [09/May/2015:19:20:00 +0900] "GET /celab/Manage/headerVolunteerManage.jsp HTTP/1.1" 200 6718
0:0:0:0:0:0:0:1 - - [09/May/2015:19:20:00 +0900] "GET /celab/css/allcss.css HTTP/1.1" 304 -
0:0:0:0:0:0:0:1 - - [09/May/2015:19:20:00 +0900] "GET /celab/images/Hydrangeas.jpg HTTP/1.1" 304 -
0:0:0:0:0:0:0:1 - - [09/May/2015:19:20:00 +0900] "GET /celab/images/Desert.jpg HTTP/1.1" 304 -
0:0:0:0:0:0:0:1 - - [09/May/2015:19:20:00 +0900] "GET /celab/images/Chrysanthemum.jpg HTTP/1.1" 304 -
0:0:0:0:0:0:0:1 - - [09/May/2015:19:20:37 +0900] "GET /celab/Manage/headerVolunteerManage.jsp HTTP/1.1" 200 6716
0:0:0:0:0:0:0:1 - - [09/May/2015:19:20:37 +0900] "GET /celab/css/allcss.css HTTP/1.1" 304 -
0:0:0:0:0:0:0:1 - - [09/May/2015:19:20:37 +0900] "GET /celab/images/Hydrangeas.jpg HTTP/1.1" 304 -
0:0:0:0:0:0:0:1 - - [09/May/2015:19:20:37 +0900] "GET /celab/images/Desert.jpg HTTP/1.1" 304 -
0:0:0:0:0:0:0:1 - - [09/May/2015:19:20:37 +0900] "GET /celab/images/Chrysanthemum.jpg HTTP/1.1" 304 -
0:0:0:0:0:0:0:1 - - [09/May/2015:19:21:50 +0900] "POST /celab/PrepareVolunteerManage.do HTTP/1.1" 500 4104
0:0:0:0:0:0:0:1 - - [09/May/2015:19:22:25 +0900] "GET /celab/Manage/headerVolunteerManage.jsp HTTP/1.1" 200 6716
0:0:0:0:0:0:0:1 - - [09/May/2015:19:22:25 +0900] "GET /celab/css/allcss.css HTTP/1.1" 304 -
0:0:0:0:0:0:0:1 - - [09/May/2015:19:22:25 +0900] "GET /celab/images/Hydrangeas.jpg HTTP/1.1" 304 -
0:0:0:0:0:0:0:1 - - [09/May/2015:19:22:25 +0900] "GET /celab/images/Desert.jpg HTTP/1.1" 304 -
0:0:0:0:0:0:0:1 - - [09/May/2015:19:22:25 +0900] "GET /celab/images/Chrysanthemum.jpg HTTP/1.1" 304 -
0:0:0:0:0:0:0:1 - - [09/May/2015:19:24:18 +0900] "GET /celab/Manage/headerVolunteerManage.jsp HTTP/1.1" 200 6594
0:0:0:0:0:0:0:1 - - [09/May/2015:19:24:18 +0900] "GET /celab/css/allcss.css HTTP/1.1" 304 -
0:0:0:0:0:0:0:1 - - [09/May/2015:19:24:18 +0900] "GET /celab/images/Hydrangeas.jpg HTTP/1.1" 304 -
0:0:0:0:0:0:0:1 - - [09/May/2015:19:24:18 +0900] "GET /celab/images/Desert.jpg HTTP/1.1" 304 -
0:0:0:0:0:0:0:1 - - [09/May/2015:19:24:18 +0900] "GET /celab/images/Chrysanthemum.jpg HTTP/1.1" 304 -
0:0:0:0:0:0:0:1 - - [09/May/2015:19:24:19 +0900] "GET /celab/Manage/headerVolunteerManage.jsp HTTP/1.1" 200 6594
0:0:0:0:0:0:0:1 - - [09/May/2015:19:24:19 +0900] "GET /celab/images/Hydrangeas.jpg HTTP/1.1" 304 -
0:0:0:0:0:0:0:1 - - [09/May/2015:19:24:19 +0900] "GET /celab/css/allcss.css HTTP/1.1" 304 -
0:0:0:0:0:0:0:1 - - [09/May/2015:19:24:19 +0900] "GET /celab/images/Desert.jpg HTTP/1.1" 304 -
0:0:0:0:0:0:0:1 - - [09/May/2015:19:24:19 +0900] "GET /celab/images/Chrysanthemum.jpg HTTP/1.1" 304 -
0:0:0:0:0:0:0:1 - - [09/May/2015:19:24:29 +0900] "GET /celab/Manage/headerVolunteerManage.jsp HTTP/1.1" 200 6595
0:0:0:0:0:0:0:1 - - [09/May/2015:19:24:29 +0900] "GET /celab/css/allcss.css HTTP/1.1" 304 -
0:0:0:0:0:0:0:1 - - [09/May/2015:19:24:29 +0900] "GET /celab/images/Hydrangeas.jpg HTTP/1.1" 304 -
0:0:0:0:0:0:0:1 - - [09/May/2015:19:24:29 +0900] "GET /celab/images/Desert.jpg HTTP/1.1" 304 -
0:0:0:0:0:0:0:1 - - [09/May/2015:19:24:29 +0900] "GET /celab/images/Chrysanthemum.jpg HTTP/1.1" 304 -
0:0:0:0:0:0:0:1 - - [09/May/2015:19:24:48 +0900] "GET /celab/mainpage/headerMoebius.jsp HTTP/1.1" 200 10335
0:0:0:0:0:0:0:1 - - [09/May/2015:19:25:23 +0900] "POST /celab/PrepareVolunteerManage.do HTTP/1.1" 500 4104
0:0:0:0:0:0:0:1 - - [09/May/2015:19:26:40 +0900] "GET /celab/AllVolunteer.do?listno=1&chk_menu=1 HTTP/1.1" 200 56303
0:0:0:0:0:0:0:1 - - [09/May/2015:19:26:40 +0900] "GET /celab/images/Desert1.jpg HTTP/1.1" 404 999
0:0:0:0:0:0:0:1 - - [09/May/2015:19:26:40 +0900] "GET /celab/images/Jellyfish1.jpg HTTP/1.1" 304 -
0:0:0:0:0:0:0:1 - - [09/May/2015:19:30:25 +0900] "GET /celab/Manage/headerVolunteerManage.jsp HTTP/1.1" 200 6597
0:0:0:0:0:0:0:1 - - [09/May/2015:19:30:25 +0900] "GET /celab/css/allcss.css HTTP/1.1" 304 -
0:0:0:0:0:0:0:1 - - [09/May/2015:19:30:25 +0900] "GET /celab/images/Hydrangeas.jpg HTTP/1.1" 304 -
0:0:0:0:0:0:0:1 - - [09/May/2015:19:30:25 +0900] "GET /celab/images/Desert.jpg HTTP/1.1" 304 -
0:0:0:0:0:0:0:1 - - [09/May/2015:19:30:25 +0900] "GET /celab/images/Chrysanthemum.jpg HTTP/1.1" 304 -
0:0:0:0:0:0:0:1 - - [09/May/2015:19:34:01 +0900] "GET /celab/Manage/headerVolunteerManage.jsp HTTP/1.1" 200 6581
0:0:0:0:0:0:0:1 - - [09/May/2015:19:34:01 +0900] "GET /celab/css/allcss.css HTTP/1.1" 304 -
0:0:0:0:0:0:0:1 - - [09/May/2015:19:34:01 +0900] "GET /celab/images/Hydrangeas.jpg HTTP/1.1" 304 -
0:0:0:0:0:0:0:1 - - [09/May/2015:19:34:01 +0900] "GET /celab/images/Desert.jpg HTTP/1.1" 304 -
0:0:0:0:0:0:0:1 - - [09/May/2015:19:34:01 +0900] "GET /celab/images/Chrysanthemum.jpg HTTP/1.1" 304 -
0:0:0:0:0:0:0:1 - - [09/May/2015:19:35:39 +0900] "GET /celab/Manage/headerVolunteerManage.jsp HTTP/1.1" 200 6579
0:0:0:0:0:0:0:1 - - [09/May/2015:19:35:39 +0900] "GET /celab/css/allcss.css HTTP/1.1" 304 -
0:0:0:0:0:0:0:1 - - [09/May/2015:19:35:39 +0900] "GET /celab/images/Hydrangeas.jpg HTTP/1.1" 304 -
0:0:0:0:0:0:0:1 - - [09/May/2015:19:35:39 +0900] "GET /celab/images/Desert.jpg HTTP/1.1" 304 -
0:0:0:0:0:0:0:1 - - [09/May/2015:19:35:39 +0900] "GET /celab/images/Chrysanthemum.jpg HTTP/1.1" 304 -
0:0:0:0:0:0:0:1 - - [09/May/2015:19:36:09 +0900] "GET /celab/Manage/headerVolunteerManage.jsp HTTP/1.1" 200 6579
0:0:0:0:0:0:0:1 - - [09/May/2015:19:36:09 +0900] "GET /celab/css/allcss.css HTTP/1.1" 304 -
0:0:0:0:0:0:0:1 - - [09/May/2015:19:36:09 +0900] "GET /celab/images/Hydrangeas.jpg HTTP/1.1" 304 -
0:0:0:0:0:0:0:1 - - [09/May/2015:19:36:09 +0900] "GET /celab/images/Desert.jpg HTTP/1.1" 304 -
0:0:0:0:0:0:0:1 - - [09/May/2015:19:36:09 +0900] "GET /celab/images/Chrysanthemum.jpg HTTP/1.1" 304 -
0:0:0:0:0:0:0:1 - - [09/May/2015:19:36:33 +0900] "GET /celab/Manage/headerVolunteerManage.jsp HTTP/1.1" 200 6576
0:0:0:0:0:0:0:1 - - [09/May/2015:19:36:33 +0900] "GET /celab/images/Hydrangeas.jpg HTTP/1.1" 304 -
0:0:0:0:0:0:0:1 - - [09/May/2015:19:36:33 +0900] "GET /celab/images/Desert.jpg HTTP/1.1" 304 -
0:0:0:0:0:0:0:1 - - [09/May/2015:19:36:33 +0900] "GET /celab/css/allcss.css HTTP/1.1" 304 -
0:0:0:0:0:0:0:1 - - [09/May/2015:19:36:33 +0900] "GET /celab/images/Chrysanthemum.jpg HTTP/1.1" 304 -
0:0:0:0:0:0:0:1 - - [09/May/2015:19:36:38 +0900] "GET /celab/Manage/headerVolunteerManage.jsp HTTP/1.1" 200 6576
0:0:0:0:0:0:0:1 - - [09/May/2015:19:36:38 +0900] "GET /celab/css/allcss.css HTTP/1.1" 304 -
0:0:0:0:0:0:0:1 - - [09/May/2015:19:36:38 +0900] "GET /celab/images/Hydrangeas.jpg HTTP/1.1" 304 -
0:0:0:0:0:0:0:1 - - [09/May/2015:19:36:38 +0900] "GET /celab/images/Desert.jpg HTTP/1.1" 304 -
0:0:0:0:0:0:0:1 - - [09/May/2015:19:36:38 +0900] "GET /celab/images/Chrysanthemum.jpg HTTP/1.1" 304 -
0:0:0:0:0:0:0:1 - - [09/May/2015:19:38:01 +0900] "GET /celab/Manage/headerVolunteerManage.jsp HTTP/1.1" 200 6573
0:0:0:0:0:0:0:1 - - [09/May/2015:19:38:01 +0900] "GET /celab/css/allcss.css HTTP/1.1" 304 -
0:0:0:0:0:0:0:1 - - [09/May/2015:19:38:01 +0900] "GET /celab/images/Hydrangeas.jpg HTTP/1.1" 304 -
0:0:0:0:0:0:0:1 - - [09/May/2015:19:38:01 +0900] "GET /celab/images/Desert.jpg HTTP/1.1" 304 -
0:0:0:0:0:0:0:1 - - [09/May/2015:19:38:01 +0900] "GET /celab/images/Chrysanthemum.jpg HTTP/1.1" 304 -
0:0:0:0:0:0:0:1 - - [09/May/2015:19:38:26 +0900] "GET /celab/Manage/headerVolunteerManage.jsp HTTP/1.1" 200 6573
0:0:0:0:0:0:0:1 - - [09/May/2015:19:38:26 +0900] "GET /celab/css/allcss.css HTTP/1.1" 304 -
0:0:0:0:0:0:0:1 - - [09/May/2015:19:38:26 +0900] "GET /celab/images/Hydrangeas.jpg HTTP/1.1" 304 -
0:0:0:0:0:0:0:1 - - [09/May/2015:19:38:26 +0900] "GET /celab/images/Desert.jpg HTTP/1.1" 304 -
0:0:0:0:0:0:0:1 - - [09/May/2015:19:38:26 +0900] "GET /celab/images/Chrysanthemum.jpg HTTP/1.1" 304 -
0:0:0:0:0:0:0:1 - - [09/May/2015:19:39:18 +0900] "GET /celab/Manage/headerVolunteerManage.jsp HTTP/1.1" 200 6573
0:0:0:0:0:0:0:1 - - [09/May/2015:19:39:18 +0900] "GET /celab/css/allcss.css HTTP/1.1" 304 -
0:0:0:0:0:0:0:1 - - [09/May/2015:19:39:18 +0900] "GET /celab/images/Hydrangeas.jpg HTTP/1.1" 304 -
0:0:0:0:0:0:0:1 - - [09/May/2015:19:39:18 +0900] "GET /celab/images/Desert.jpg HTTP/1.1" 304 -
0:0:0:0:0:0:0:1 - - [09/May/2015:19:39:18 +0900] "GET /celab/images/Chrysanthemum.jpg HTTP/1.1" 304 -
0:0:0:0:0:0:0:1 - - [09/May/2015:19:39:45 +0900] "GET /celab/MainMoebius.do HTTP/1.1" 200 15290
0:0:0:0:0:0:0:1 - - [09/May/2015:19:39:45 +0900] "GET /celab/images/Jellyfish1.jpg HTTP/1.1" 304 -
0:0:0:0:0:0:0:1 - - [09/May/2015:19:41:02 +0900] "GET /celab/Manage/headerVolunteerManage.jsp HTTP/1.1" 200 6573
0:0:0:0:0:0:0:1 - - [09/May/2015:19:41:02 +0900] "GET /celab/css/allcss.css HTTP/1.1" 304 -
0:0:0:0:0:0:0:1 - - [09/May/2015:19:41:02 +0900] "GET /celab/images/Hydrangeas.jpg HTTP/1.1" 304 -
0:0:0:0:0:0:0:1 - - [09/May/2015:19:41:02 +0900] "GET /celab/images/Desert.jpg HTTP/1.1" 304 -
0:0:0:0:0:0:0:1 - - [09/May/2015:19:41:02 +0900] "GET /celab/images/Chrysanthemum.jpg HTTP/1.1" 304 -
0:0:0:0:0:0:0:1 - - [09/May/2015:19:43:30 +0900] "GET /celab/Manage/headerVolunteerManage.jsp HTTP/1.1" 200 6573
0:0:0:0:0:0:0:1 - - [09/May/2015:19:43:30 +0900] "GET /celab/css/allcss.css HTTP/1.1" 304 -
0:0:0:0:0:0:0:1 - - [09/May/2015:19:43:30 +0900] "GET /celab/images/Hydrangeas.jpg HTTP/1.1" 304 -
0:0:0:0:0:0:0:1 - - [09/May/2015:19:43:30 +0900] "GET /celab/images/Desert.jpg HTTP/1.1" 304 -
0:0:0:0:0:0:0:1 - - [09/May/2015:19:43:30 +0900] "GET /celab/images/Chrysanthemum.jpg HTTP/1.1" 304 -
0:0:0:0:0:0:0:1 - - [09/May/2015:19:44:47 +0900] "GET /celab/Manage/headerVolunteerManage.jsp HTTP/1.1" 200 6573
0:0:0:0:0:0:0:1 - - [09/May/2015:19:44:47 +0900] "GET /celab/css/allcss.css HTTP/1.1" 304 -
0:0:0:0:0:0:0:1 - - [09/May/2015:19:44:47 +0900] "GET /celab/images/Hydrangeas.jpg HTTP/1.1" 304 -
0:0:0:0:0:0:0:1 - - [09/May/2015:19:44:47 +0900] "GET /celab/images/Desert.jpg HTTP/1.1" 304 -
0:0:0:0:0:0:0:1 - - [09/May/2015:19:44:47 +0900] "GET /celab/images/Chrysanthemum.jpg HTTP/1.1" 304 -
0:0:0:0:0:0:0:1 - - [09/May/2015:19:45:30 +0900] "GET /celab/Manage/headerVolunteerManage.jsp HTTP/1.1" 200 6571
0:0:0:0:0:0:0:1 - - [09/May/2015:19:45:30 +0900] "GET /celab/css/allcss.css HTTP/1.1" 304 -
0:0:0:0:0:0:0:1 - - [09/May/2015:19:45:30 +0900] "GET /celab/images/Hydrangeas.jpg HTTP/1.1" 304 -
0:0:0:0:0:0:0:1 - - [09/May/2015:19:45:30 +0900] "GET /celab/images/Desert.jpg HTTP/1.1" 304 -
0:0:0:0:0:0:0:1 - - [09/May/2015:19:45:30 +0900] "GET /celab/images/Chrysanthemum.jpg HTTP/1.1" 304 -
0:0:0:0:0:0:0:1 - - [09/May/2015:19:46:28 +0900] "GET /celab/Manage/headerVolunteerManage.jsp HTTP/1.1" 200 6220
0:0:0:0:0:0:0:1 - - [09/May/2015:19:46:28 +0900] "GET /celab/css/allcss.css HTTP/1.1" 304 -
0:0:0:0:0:0:0:1 - - [09/May/2015:19:46:28 +0900] "GET /celab/images/Hydrangeas.jpg HTTP/1.1" 304 -
0:0:0:0:0:0:0:1 - - [09/May/2015:19:46:28 +0900] "GET /celab/images/Desert.jpg HTTP/1.1" 304 -
0:0:0:0:0:0:0:1 - - [09/May/2015:19:46:28 +0900] "GET /celab/images/Chrysanthemum.jpg HTTP/1.1" 304 -
0:0:0:0:0:0:0:1 - - [09/May/2015:19:46:29 +0900] "GET /celab/Manage/headerVolunteerManage.jsp HTTP/1.1" 200 6220
0:0:0:0:0:0:0:1 - - [09/May/2015:19:46:29 +0900] "GET /celab/css/allcss.css HTTP/1.1" 304 -
0:0:0:0:0:0:0:1 - - [09/May/2015:19:46:29 +0900] "GET /celab/images/Hydrangeas.jpg HTTP/1.1" 304 -
0:0:0:0:0:0:0:1 - - [09/May/2015:19:46:29 +0900] "GET /celab/images/Desert.jpg HTTP/1.1" 304 -
0:0:0:0:0:0:0:1 - - [09/May/2015:19:46:29 +0900] "GET /celab/images/Chrysanthemum.jpg HTTP/1.1" 304 -
0:0:0:0:0:0:0:1 - - [09/May/2015:19:49:22 +0900] "GET /celab/Manage/headerVolunteerManage.jsp HTTP/1.1" 200 6220
0:0:0:0:0:0:0:1 - - [09/May/2015:19:49:22 +0900] "GET /celab/css/allcss.css HTTP/1.1" 304 -
0:0:0:0:0:0:0:1 - - [09/May/2015:19:49:22 +0900] "GET /celab/images/Hydrangeas.jpg HTTP/1.1" 304 -
0:0:0:0:0:0:0:1 - - [09/May/2015:19:49:22 +0900] "GET /celab/images/Desert.jpg HTTP/1.1" 304 -
0:0:0:0:0:0:0:1 - - [09/May/2015:19:49:22 +0900] "GET /celab/images/Chrysanthemum.jpg HTTP/1.1" 304 -
0:0:0:0:0:0:0:1 - - [09/May/2015:19:49:40 +0900] "GET /celab/Manage/headerVolunteerManage.jsp HTTP/1.1" 200 6220
0:0:0:0:0:0:0:1 - - [09/May/2015:19:49:40 +0900] "GET /celab/css/allcss.css HTTP/1.1" 304 -
0:0:0:0:0:0:0:1 - - [09/May/2015:19:49:40 +0900] "GET /celab/images/Hydrangeas.jpg HTTP/1.1" 304 -
0:0:0:0:0:0:0:1 - - [09/May/2015:19:49:40 +0900] "GET /celab/images/Desert.jpg HTTP/1.1" 304 -
0:0:0:0:0:0:0:1 - - [09/May/2015:19:49:40 +0900] "GET /celab/images/Chrysanthemum.jpg HTTP/1.1" 304 -
0:0:0:0:0:0:0:1 - - [09/May/2015:19:51:17 +0900] "GET /celab/Manage/headerVolunteerManage.jsp HTTP/1.1" 200 6222
0:0:0:0:0:0:0:1 - - [09/May/2015:19:51:17 +0900] "GET /celab/css/allcss.css HTTP/1.1" 304 -
0:0:0:0:0:0:0:1 - - [09/May/2015:19:51:17 +0900] "GET /celab/images/Hydrangeas.jpg HTTP/1.1" 304 -
0:0:0:0:0:0:0:1 - - [09/May/2015:19:51:17 +0900] "GET /celab/images/Desert.jpg HTTP/1.1" 304 -
0:0:0:0:0:0:0:1 - - [09/May/2015:19:51:17 +0900] "GET /celab/images/Chrysanthemum.jpg HTTP/1.1" 304 -
0:0:0:0:0:0:0:1 - - [09/May/2015:19:51:48 +0900] "GET /celab/Manage/headerVolunteerManage.jsp HTTP/1.1" 200 6221
0:0:0:0:0:0:0:1 - - [09/May/2015:19:51:48 +0900] "GET /celab/css/allcss.css HTTP/1.1" 304 -
0:0:0:0:0:0:0:1 - - [09/May/2015:19:51:48 +0900] "GET /celab/images/Hydrangeas.jpg HTTP/1.1" 304 -
0:0:0:0:0:0:0:1 - - [09/May/2015:19:51:48 +0900] "GET /celab/images/Desert.jpg HTTP/1.1" 304 -
0:0:0:0:0:0:0:1 - - [09/May/2015:19:51:48 +0900] "GET /celab/images/Chrysanthemum.jpg HTTP/1.1" 304 -
0:0:0:0:0:0:0:1 - - [09/May/2015:19:52:11 +0900] "GET /celab/Manage/headerVolunteerManage.jsp HTTP/1.1" 200 6221
0:0:0:0:0:0:0:1 - - [09/May/2015:19:52:11 +0900] "GET /celab/css/allcss.css HTTP/1.1" 304 -
0:0:0:0:0:0:0:1 - - [09/May/2015:19:52:11 +0900] "GET /celab/images/Hydrangeas.jpg HTTP/1.1" 304 -
0:0:0:0:0:0:0:1 - - [09/May/2015:19:52:11 +0900] "GET /celab/images/Desert.jpg HTTP/1.1" 304 -
0:0:0:0:0:0:0:1 - - [09/May/2015:19:52:11 +0900] "GET /celab/images/Chrysanthemum.jpg HTTP/1.1" 304 -
0:0:0:0:0:0:0:1 - - [09/May/2015:19:52:49 +0900] "GET /celab/Manage/headerVolunteerManage.jsp HTTP/1.1" 200 6222
0:0:0:0:0:0:0:1 - - [09/May/2015:19:52:49 +0900] "GET /celab/css/allcss.css HTTP/1.1" 304 -
0:0:0:0:0:0:0:1 - - [09/May/2015:19:52:49 +0900] "GET /celab/images/Hydrangeas.jpg HTTP/1.1" 304 -
0:0:0:0:0:0:0:1 - - [09/May/2015:19:52:49 +0900] "GET /celab/images/Desert.jpg HTTP/1.1" 304 -
0:0:0:0:0:0:0:1 - - [09/May/2015:19:52:49 +0900] "GET /celab/images/Chrysanthemum.jpg HTTP/1.1" 304 -
0:0:0:0:0:0:0:1 - - [09/May/2015:19:53:16 +0900] "GET /celab/Manage/headerVolunteerManage.jsp HTTP/1.1" 200 6221
0:0:0:0:0:0:0:1 - - [09/May/2015:19:53:16 +0900] "GET /celab/css/allcss.css HTTP/1.1" 304 -
0:0:0:0:0:0:0:1 - - [09/May/2015:19:53:16 +0900] "GET /celab/images/Hydrangeas.jpg HTTP/1.1" 304 -
0:0:0:0:0:0:0:1 - - [09/May/2015:19:53:16 +0900] "GET /celab/images/Desert.jpg HTTP/1.1" 304 -
0:0:0:0:0:0:0:1 - - [09/May/2015:19:53:16 +0900] "GET /celab/images/Chrysanthemum.jpg HTTP/1.1" 304 -
0:0:0:0:0:0:0:1 - - [09/May/2015:19:53:34 +0900] "GET /celab/Manage/headerVolunteerManage.jsp HTTP/1.1" 200 6221
0:0:0:0:0:0:0:1 - - [09/May/2015:19:53:34 +0900] "GET /celab/images/Hydrangeas.jpg HTTP/1.1" 304 -
0:0:0:0:0:0:0:1 - - [09/May/2015:19:53:34 +0900] "GET /celab/css/allcss.css HTTP/1.1" 304 -
0:0:0:0:0:0:0:1 - - [09/May/2015:19:53:34 +0900] "GET /celab/images/Desert.jpg HTTP/1.1" 304 -
0:0:0:0:0:0:0:1 - - [09/May/2015:19:53:34 +0900] "GET /celab/images/Chrysanthemum.jpg HTTP/1.1" 304 -
0:0:0:0:0:0:0:1 - - [09/May/2015:19:53:49 +0900] "GET /celab/Manage/headerVolunteerManage.jsp HTTP/1.1" 200 6221
0:0:0:0:0:0:0:1 - - [09/May/2015:19:53:49 +0900] "GET /celab/css/allcss.css HTTP/1.1" 304 -
0:0:0:0:0:0:0:1 - - [09/May/2015:19:53:49 +0900] "GET /celab/images/Hydrangeas.jpg HTTP/1.1" 304 -
0:0:0:0:0:0:0:1 - - [09/May/2015:19:53:49 +0900] "GET /celab/images/Desert.jpg HTTP/1.1" 304 -
0:0:0:0:0:0:0:1 - - [09/May/2015:19:53:49 +0900] "GET /celab/images/Chrysanthemum.jpg HTTP/1.1" 304 -
0:0:0:0:0:0:0:1 - - [09/May/2015:19:54:03 +0900] "GET /celab/Manage/headerVolunteerManage.jsp HTTP/1.1" 200 6221
0:0:0:0:0:0:0:1 - - [09/May/2015:19:54:03 +0900] "GET /celab/css/allcss.css HTTP/1.1" 304 -
0:0:0:0:0:0:0:1 - - [09/May/2015:19:54:03 +0900] "GET /celab/images/Hydrangeas.jpg HTTP/1.1" 304 -
0:0:0:0:0:0:0:1 - - [09/May/2015:19:54:03 +0900] "GET /celab/images/Desert.jpg HTTP/1.1" 304 -
0:0:0:0:0:0:0:1 - - [09/May/2015:19:54:03 +0900] "GET /celab/images/Chrysanthemum.jpg HTTP/1.1" 304 -
0:0:0:0:0:0:0:1 - - [09/May/2015:19:54:39 +0900] "GET /celab/Manage/headerVolunteerManage.jsp HTTP/1.1" 200 6221
0:0:0:0:0:0:0:1 - - [09/May/2015:19:54:39 +0900] "GET /favicon.ico HTTP/1.1" 404 973
0:0:0:0:0:0:0:1 - - [09/May/2015:19:55:09 +0900] "GET /celab/Manage/headerVolunteerManage.jsp HTTP/1.1" 200 6224
0:0:0:0:0:0:0:1 - - [09/May/2015:19:55:09 +0900] "GET /celab/css/allcss.css HTTP/1.1" 304 -
0:0:0:0:0:0:0:1 - - [09/May/2015:19:55:09 +0900] "GET /celab/images/Hydrangeas.jpg HTTP/1.1" 304 -
0:0:0:0:0:0:0:1 - - [09/May/2015:19:55:09 +0900] "GET /celab/images/Desert.jpg HTTP/1.1" 304 -
0:0:0:0:0:0:0:1 - - [09/May/2015:19:55:09 +0900] "GET /celab/images/Chrysanthemum.jpg HTTP/1.1" 304 -
0:0:0:0:0:0:0:1 - - [09/May/2015:19:56:15 +0900] "GET /celab/Manage/headerVolunteerManage.jsp HTTP/1.1" 200 6225
0:0:0:0:0:0:0:1 - - [09/May/2015:19:56:15 +0900] "GET /celab/css/allcss.css HTTP/1.1" 304 -
0:0:0:0:0:0:0:1 - - [09/May/2015:19:56:15 +0900] "GET /celab/images/Hydrangeas.jpg HTTP/1.1" 304 -
0:0:0:0:0:0:0:1 - - [09/May/2015:19:56:15 +0900] "GET /celab/images/Desert.jpg HTTP/1.1" 304 -
0:0:0:0:0:0:0:1 - - [09/May/2015:19:56:15 +0900] "GET /celab/images/Chrysanthemum.jpg HTTP/1.1" 304 -
0:0:0:0:0:0:0:1 - - [09/May/2015:19:56:45 +0900] "GET /celab/Manage/headerVolunteerManage.jsp HTTP/1.1" 200 6224
0:0:0:0:0:0:0:1 - - [09/May/2015:19:56:45 +0900] "GET /celab/css/allcss.css HTTP/1.1" 304 -
0:0:0:0:0:0:0:1 - - [09/May/2015:19:56:45 +0900] "GET /celab/images/Hydrangeas.jpg HTTP/1.1" 304 -
0:0:0:0:0:0:0:1 - - [09/May/2015:19:56:45 +0900] "GET /celab/images/Desert.jpg HTTP/1.1" 304 -
0:0:0:0:0:0:0:1 - - [09/May/2015:19:56:45 +0900] "GET /celab/images/Chrysanthemum.jpg HTTP/1.1" 304 -
0:0:0:0:0:0:0:1 - - [09/May/2015:19:57:24 +0900] "GET /celab/Manage/headerVolunteerManage.jsp HTTP/1.1" 200 6228
0:0:0:0:0:0:0:1 - - [09/May/2015:19:57:24 +0900] "GET /celab/css/allcss.css HTTP/1.1" 304 -
0:0:0:0:0:0:0:1 - - [09/May/2015:19:57:24 +0900] "GET /celab/images/Hydrangeas.jpg HTTP/1.1" 304 -
0:0:0:0:0:0:0:1 - - [09/May/2015:19:57:24 +0900] "GET /celab/images/Desert.jpg HTTP/1.1" 304 -
0:0:0:0:0:0:0:1 - - [09/May/2015:19:57:24 +0900] "GET /celab/images/Chrysanthemum.jpg HTTP/1.1" 304 -
0:0:0:0:0:0:0:1 - - [09/May/2015:20:00:15 +0900] "GET /celab/Manage/headerVolunteerManage.jsp HTTP/1.1" 200 6227
0:0:0:0:0:0:0:1 - - [09/May/2015:20:00:15 +0900] "GET /celab/css/allcss.css HTTP/1.1" 304 -
0:0:0:0:0:0:0:1 - - [09/May/2015:20:00:15 +0900] "GET /celab/images/Hydrangeas.jpg HTTP/1.1" 304 -
0:0:0:0:0:0:0:1 - - [09/May/2015:20:00:15 +0900] "GET /celab/images/Desert.jpg HTTP/1.1" 304 -
0:0:0:0:0:0:0:1 - - [09/May/2015:20:00:15 +0900] "GET /celab/images/Chrysanthemum.jpg HTTP/1.1" 304 -
0:0:0:0:0:0:0:1 - - [09/May/2015:20:01:58 +0900] "GET /celab/Manage/headerVolunteerManage.jsp HTTP/1.1" 200 6218
0:0:0:0:0:0:0:1 - - [09/May/2015:20:01:58 +0900] "GET /celab/css/allcss.css HTTP/1.1" 304 -
0:0:0:0:0:0:0:1 - - [09/May/2015:20:01:58 +0900] "GET /celab/images/Hydrangeas.jpg HTTP/1.1" 304 -
0:0:0:0:0:0:0:1 - - [09/May/2015:20:01:58 +0900] "GET /celab/images/Desert.jpg HTTP/1.1" 304 -
0:0:0:0:0:0:0:1 - - [09/May/2015:20:01:58 +0900] "GET /celab/images/Chrysanthemum.jpg HTTP/1.1" 304 -
0:0:0:0:0:0:0:1 - - [09/May/2015:20:02:43 +0900] "GET /celab/Manage/headerVolunteerManage.jsp HTTP/1.1" 200 6218
0:0:0:0:0:0:0:1 - - [09/May/2015:20:02:43 +0900] "GET /celab/css/allcss.css HTTP/1.1" 304 -
0:0:0:0:0:0:0:1 - - [09/May/2015:20:02:43 +0900] "GET /celab/images/Hydrangeas.jpg HTTP/1.1" 304 -
0:0:0:0:0:0:0:1 - - [09/May/2015:20:02:43 +0900] "GET /celab/images/Desert.jpg HTTP/1.1" 304 -
0:0:0:0:0:0:0:1 - - [09/May/2015:20:02:43 +0900] "GET /celab/images/Chrysanthemum.jpg HTTP/1.1" 304 -
0:0:0:0:0:0:0:1 - - [09/May/2015:20:03:02 +0900] "GET /celab/Manage/headerVolunteerManage.jsp HTTP/1.1" 200 6218
0:0:0:0:0:0:0:1 - - [09/May/2015:20:03:02 +0900] "GET /celab/css/allcss.css HTTP/1.1" 304 -
0:0:0:0:0:0:0:1 - - [09/May/2015:20:03:02 +0900] "GET /celab/images/Hydrangeas.jpg HTTP/1.1" 304 -
0:0:0:0:0:0:0:1 - - [09/May/2015:20:03:02 +0900] "GET /celab/images/Desert.jpg HTTP/1.1" 304 -
0:0:0:0:0:0:0:1 - - [09/May/2015:20:03:02 +0900] "GET /celab/images/Chrysanthemum.jpg HTTP/1.1" 304 -
0:0:0:0:0:0:0:1 - - [09/May/2015:20:03:14 +0900] "GET /celab/Manage/headerVolunteerManage.jsp HTTP/1.1" 200 6218
0:0:0:0:0:0:0:1 - - [09/May/2015:20:03:14 +0900] "GET /celab/css/allcss.css HTTP/1.1" 304 -
0:0:0:0:0:0:0:1 - - [09/May/2015:20:03:14 +0900] "GET /celab/images/Hydrangeas.jpg HTTP/1.1" 304 -
0:0:0:0:0:0:0:1 - - [09/May/2015:20:03:14 +0900] "GET /celab/images/Desert.jpg HTTP/1.1" 304 -
0:0:0:0:0:0:0:1 - - [09/May/2015:20:03:14 +0900] "GET /celab/images/Chrysanthemum.jpg HTTP/1.1" 304 -
0:0:0:0:0:0:0:1 - - [09/May/2015:20:03:34 +0900] "GET /celab/Manage/headerVolunteerManage.jsp HTTP/1.1" 200 6218
0:0:0:0:0:0:0:1 - - [09/May/2015:20:03:34 +0900] "GET /celab/images/Hydrangeas.jpg HTTP/1.1" 304 -
0:0:0:0:0:0:0:1 - - [09/May/2015:20:03:34 +0900] "GET /celab/css/allcss.css HTTP/1.1" 304 -
0:0:0:0:0:0:0:1 - - [09/May/2015:20:03:34 +0900] "GET /celab/images/Desert.jpg HTTP/1.1" 304 -
0:0:0:0:0:0:0:1 - - [09/May/2015:20:03:34 +0900] "GET /celab/images/Chrysanthemum.jpg HTTP/1.1" 304 -
0:0:0:0:0:0:0:1 - - [09/May/2015:20:03:47 +0900] "GET /celab/Manage/headerVolunteerManage.jsp HTTP/1.1" 200 6218
0:0:0:0:0:0:0:1 - - [09/May/2015:20:03:47 +0900] "GET /celab/images/Hydrangeas.jpg HTTP/1.1" 304 -
0:0:0:0:0:0:0:1 - - [09/May/2015:20:03:47 +0900] "GET /celab/css/allcss.css HTTP/1.1" 304 -
0:0:0:0:0:0:0:1 - - [09/May/2015:20:03:47 +0900] "GET /celab/images/Desert.jpg HTTP/1.1" 304 -
0:0:0:0:0:0:0:1 - - [09/May/2015:20:03:47 +0900] "GET /celab/images/Chrysanthemum.jpg HTTP/1.1" 304 -
0:0:0:0:0:0:0:1 - - [09/May/2015:20:04:43 +0900] "GET /celab/Manage/headerVolunteerManage.jsp HTTP/1.1" 200 6219
0:0:0:0:0:0:0:1 - - [09/May/2015:20:04:43 +0900] "GET /celab/css/allcss.css HTTP/1.1" 304 -
0:0:0:0:0:0:0:1 - - [09/May/2015:20:04:43 +0900] "GET /celab/images/Hydrangeas.jpg HTTP/1.1" 304 -
0:0:0:0:0:0:0:1 - - [09/May/2015:20:04:43 +0900] "GET /celab/images/Desert.jpg HTTP/1.1" 304 -
0:0:0:0:0:0:0:1 - - [09/May/2015:20:04:43 +0900] "GET /celab/images/Chrysanthemum.jpg HTTP/1.1" 304 -
0:0:0:0:0:0:0:1 - - [09/May/2015:20:05:11 +0900] "GET /celab/Manage/headerVolunteerManage.jsp HTTP/1.1" 200 6219
0:0:0:0:0:0:0:1 - - [09/May/2015:20:05:11 +0900] "GET /celab/css/allcss.css HTTP/1.1" 304 -
0:0:0:0:0:0:0:1 - - [09/May/2015:20:05:11 +0900] "GET /celab/images/Hydrangeas.jpg HTTP/1.1" 304 -
0:0:0:0:0:0:0:1 - - [09/May/2015:20:05:11 +0900] "GET /celab/images/Desert.jpg HTTP/1.1" 304 -
0:0:0:0:0:0:0:1 - - [09/May/2015:20:05:11 +0900] "GET /celab/images/Chrysanthemum.jpg HTTP/1.1" 304 -
0:0:0:0:0:0:0:1 - - [09/May/2015:20:05:35 +0900] "GET /celab/Manage/headerVolunteerManage.jsp HTTP/1.1" 200 6219
0:0:0:0:0:0:0:1 - - [09/May/2015:20:05:35 +0900] "GET /celab/css/allcss.css HTTP/1.1" 304 -
0:0:0:0:0:0:0:1 - - [09/May/2015:20:05:35 +0900] "GET /celab/images/Hydrangeas.jpg HTTP/1.1" 304 -
0:0:0:0:0:0:0:1 - - [09/May/2015:20:05:35 +0900] "GET /celab/images/Desert.jpg HTTP/1.1" 304 -
0:0:0:0:0:0:0:1 - - [09/May/2015:20:05:35 +0900] "GET /celab/images/Chrysanthemum.jpg HTTP/1.1" 304 -
0:0:0:0:0:0:0:1 - - [09/May/2015:20:05:57 +0900] "GET /celab/Manage/headerVolunteerManage.jsp HTTP/1.1" 200 6219
0:0:0:0:0:0:0:1 - - [09/May/2015:20:05:57 +0900] "GET /celab/css/allcss.css HTTP/1.1" 304 -
0:0:0:0:0:0:0:1 - - [09/May/2015:20:05:57 +0900] "GET /celab/images/Hydrangeas.jpg HTTP/1.1" 304 -
0:0:0:0:0:0:0:1 - - [09/May/2015:20:05:57 +0900] "GET /celab/images/Desert.jpg HTTP/1.1" 304 -
0:0:0:0:0:0:0:1 - - [09/May/2015:20:05:57 +0900] "GET /celab/images/Chrysanthemum.jpg HTTP/1.1" 304 -
0:0:0:0:0:0:0:1 - - [09/May/2015:20:06:14 +0900] "GET /celab/Manage/headerVolunteerManage.jsp HTTP/1.1" 200 6219
0:0:0:0:0:0:0:1 - - [09/May/2015:20:06:14 +0900] "GET /celab/images/Hydrangeas.jpg HTTP/1.1" 304 -
0:0:0:0:0:0:0:1 - - [09/May/2015:20:06:14 +0900] "GET /celab/css/allcss.css HTTP/1.1" 304 -
0:0:0:0:0:0:0:1 - - [09/May/2015:20:06:14 +0900] "GET /celab/images/Desert.jpg HTTP/1.1" 304 -
0:0:0:0:0:0:0:1 - - [09/May/2015:20:06:14 +0900] "GET /celab/images/Chrysanthemum.jpg HTTP/1.1" 304 -
0:0:0:0:0:0:0:1 - - [09/May/2015:20:06:32 +0900] "GET /celab/Manage/headerVolunteerManage.jsp HTTP/1.1" 200 6219
0:0:0:0:0:0:0:1 - - [09/May/2015:20:06:32 +0900] "GET /celab/css/allcss.css HTTP/1.1" 304 -
0:0:0:0:0:0:0:1 - - [09/May/2015:20:06:32 +0900] "GET /celab/images/Hydrangeas.jpg HTTP/1.1" 304 -
0:0:0:0:0:0:0:1 - - [09/May/2015:20:06:32 +0900] "GET /celab/images/Desert.jpg HTTP/1.1" 304 -
0:0:0:0:0:0:0:1 - - [09/May/2015:20:06:32 +0900] "GET /celab/images/Chrysanthemum.jpg HTTP/1.1" 304 -
0:0:0:0:0:0:0:1 - - [09/May/2015:20:07:08 +0900] "GET /celab/Manage/headerVolunteerManage.jsp HTTP/1.1" 200 6219
0:0:0:0:0:0:0:1 - - [09/May/2015:20:07:08 +0900] "GET /celab/images/Hydrangeas.jpg HTTP/1.1" 304 -
0:0:0:0:0:0:0:1 - - [09/May/2015:20:07:08 +0900] "GET /celab/css/allcss.css HTTP/1.1" 304 -
0:0:0:0:0:0:0:1 - - [09/May/2015:20:07:08 +0900] "GET /celab/images/Desert.jpg HTTP/1.1" 304 -
0:0:0:0:0:0:0:1 - - [09/May/2015:20:07:08 +0900] "GET /celab/images/Chrysanthemum.jpg HTTP/1.1" 304 -
0:0:0:0:0:0:0:1 - - [09/May/2015:20:07:30 +0900] "GET /celab/Manage/headerVolunteerManage.jsp HTTP/1.1" 200 6219
0:0:0:0:0:0:0:1 - - [09/May/2015:20:07:30 +0900] "GET /celab/css/allcss.css HTTP/1.1" 304 -
0:0:0:0:0:0:0:1 - - [09/May/2015:20:07:30 +0900] "GET /celab/images/Hydrangeas.jpg HTTP/1.1" 304 -
0:0:0:0:0:0:0:1 - - [09/May/2015:20:07:30 +0900] "GET /celab/images/Desert.jpg HTTP/1.1" 304 -
0:0:0:0:0:0:0:1 - - [09/May/2015:20:07:30 +0900] "GET /celab/images/Chrysanthemum.jpg HTTP/1.1" 304 -
0:0:0:0:0:0:0:1 - - [09/May/2015:20:07:44 +0900] "GET /celab/Manage/headerVolunteerManage.jsp HTTP/1.1" 200 6219
0:0:0:0:0:0:0:1 - - [09/May/2015:20:07:44 +0900] "GET /celab/images/Hydrangeas.jpg HTTP/1.1" 304 -
0:0:0:0:0:0:0:1 - - [09/May/2015:20:07:44 +0900] "GET /celab/css/allcss.css HTTP/1.1" 304 -
0:0:0:0:0:0:0:1 - - [09/May/2015:20:07:44 +0900] "GET /celab/images/Desert.jpg HTTP/1.1" 304 -
0:0:0:0:0:0:0:1 - - [09/May/2015:20:07:44 +0900] "GET /celab/images/Chrysanthemum.jpg HTTP/1.1" 304 -
0:0:0:0:0:0:0:1 - - [09/May/2015:20:07:57 +0900] "POST /celab/PrepareVolunteerManage.do HTTP/1.1" 500 4104
0:0:0:0:0:0:0:1 - - [09/May/2015:20:08:33 +0900] "GET /celab/mainpage/headerMoebius.jsp HTTP/1.1" 200 10335
0:0:0:0:0:0:0:1 - - [09/May/2015:20:08:33 +0900] "GET /favicon.ico HTTP/1.1" 404 973
0:0:0:0:0:0:0:1 - - [09/May/2015:20:08:45 +0900] "POST /celab/idPassCheck.do HTTP/1.1" 200 7
0:0:0:0:0:0:0:1 - - [09/May/2015:20:08:45 +0900] "POST /celab/login.do HTTP/1.1" 200 10683
0:0:0:0:0:0:0:1 - - [09/May/2015:20:08:45 +0900] "GET /celab/images/Hydrangeas1.jpg HTTP/1.1" 304 -
0:0:0:0:0:0:0:1 - - [09/May/2015:20:08:50 +0900] "GET /celab/Manage/headerVolunteerManage.jsp HTTP/1.1" 200 6219
0:0:0:0:0:0:0:1 - - [09/May/2015:20:08:54 +0900] "POST /celab/PrepareVolunteerManage.do HTTP/1.1" 200 1992
0:0:0:0:0:0:0:1 - - [09/May/2015:20:08:56 +0900] "GET /celab/prepareAttendance.do?date=2015-04-16&no=2 HTTP/1.1" 200 15911
